System Call Name;Windows XP SP0;Windows 10 1703;Windows 8 8.1;Windows 7 SP0;Windows 8 8.0;Windows Vista SP0;Windows 2000 SP1;Windows XP SP2;Windows 2000 SP3;Windows 2000 SP4;Windows XP SP3;Windows Server 2003 SP1;Windows 2000 SP2;Windows NT SP4;Windows Vista SP2;Windows Server 2003 R2 SP2;Windows NT SP6;Windows NT SP3;Windows Server 2003 R2;Windows Server 2003 SP2;Windows XP SP1;Windows Server 2008 SP0;Windows 10 1511;Windows NT SP5;Windows Server 2008 SP2;Windows 10 1607;Windows 10 1709;Windows Server 2003 SP0;Windows 10 1507;Windows 7 SP1;Windows Vista SP1;Windows 2000 SP0
NtAcceptConnectPort;0;2;1;0;428;0;0;0;0;0;0;0;0;0;0;0;0;0;0;0;0;0;2;0;0;2;2;0;2;0;0;0
NtAccessCheck;1;0;432;1;427;1;1;1;1;1;1;1;1;1;1;1;1;1;1;1;1;1;0;1;1;0;0;1;0;1;1;1
NtAccessCheckAndAuditAlarm;2;450;431;2;426;2;2;2;2;2;2;2;2;2;2;2;2;2;2;2;2;2;442;2;2;444;454;2;439;2;2;2
NtAccessCheckByType;3;449;430;3;425;3;3;3;3;3;3;3;3;-1;3;3;-1;-1;3;3;3;3;441;-1;3;443;453;3;438;3;3;3
NtAccessCheckByTypeAndAuditAlarm;4;448;429;4;424;4;4;4;4;4;4;4;4;-1;4;4;-1;-1;4;4;4;4;440;-1;4;442;452;4;437;4;4;4
NtAccessCheckByTypeResultList;5;447;428;5;423;5;5;5;5;5;5;5;5;-1;5;5;-1;-1;5;5;5;5;439;-1;5;441;451;5;436;5;5;5
NtAccessCheckByTypeResultListAndAuditAlarm;6;446;427;6;422;6;6;6;6;6;6;6;6;-1;6;6;-1;-1;6;6;6;6;438;-1;6;440;450;6;435;6;6;6
NtAccessCheckByTypeResultListAndAuditAlarmByHandle;7;445;426;7;421;7;7;7;7;7;7;7;7;-1;7;7;-1;-1;7;7;7;7;437;-1;7;439;449;7;434;7;7;7
NtAcquireCMFViewOwnership;-1;-1;-1;-1;-1;396;-1;-1;-1;-1;-1;-1;-1;-1;389;-1;-1;-1;-1;-1;-1;389;-1;-1;389;-1;-1;-1;-1;-1;389;-1
NtAcquireProcessActivityReference;-1;444;-1;-1;-1;-1;-1;-1;-1;-1;-1;-1;-1;-1;-1;-1;-1;-1;-1;-1;-1;-1;-1;-1;-1;-1;448;-1;-1;-1;-1;-1
NtAddAtom;8;442;424;8;419;8;8;8;8;8;8;8;8;3;8;8;3;3;8;8;8;8;435;3;8;437;446;8;432;8;8;8
NtAddAtomEx;-1;443;425;-1;420;-1;-1;-1;-1;-1;-1;-1;-1;-1;-1;-1;-1;-1;-1;-1;-1;-1;436;-1;-1;438;447;-1;433;-1;-1;-1
NtAddBootEntry;9;441;423;9;418;9;-1;9;-1;-1;9;9;-1;-1;9;9;-1;-1;9;9;9;9;434;-1;9;436;445;9;431;9;9;-1
NtAddDriverEntry;-1;440;422;10;417;10;-1;-1;-1;-1;-1;10;-1;-1;10;10;-1;-1;10;10;-1;10;433;-1;10;435;444;10;430;10;10;-1
NtAdjustGroupsToken;10;438;420;11;415;11;9;10;9;9;10;11;9;4;11;11;4;4;11;11;10;11;431;4;11;433;442;11;428;11;11;9
NtAdjustPrivilegesToken;11;437;419;12;414;12;10;11;10;10;11;12;10;5;12;12;5;5;12;12;11;12;430;5;12;432;441;12;427;12;12;10
NtAdjustTokenClaimsAndDeviceGroups;-1;439;421;-1;416;-1;-1;-1;-1;-1;-1;-1;-1;-1;-1;-1;-1;-1;-1;-1;-1;-1;432;-1;-1;434;443;-1;429;-1;-1;-1
NtAlertResumeThread;12;436;418;13;413;13;11;12;11;11;12;13;11;6;13;13;6;6;13;13;12;13;429;6;13;431;440;13;426;13;13;11
NtAlertThread;13;435;417;14;412;14;12;13;12;12;13;14;12;7;14;14;7;7;14;14;13;14;428;7;14;430;439;14;425;14;14;12
NtAlertThreadByThreadId;-1;434;416;-1;411;-1;-1;-1;-1;-1;-1;-1;-1;-1;-1;-1;-1;-1;-1;-1;-1;-1;427;-1;-1;429;438;-1;424;-1;-1;-1
NtAllocateLocallyUniqueId;14;433;415;15;410;15;13;14;13;13;14;15;13;8;15;15;8;8;15;15;14;15;426;8;15;428;437;15;423;15;15;13
NtAllocateReserveObject;-1;432;414;16;409;-1;-1;-1;-1;-1;-1;-1;-1;-1;-1;-1;-1;-1;-1;-1;-1;-1;425;-1;-1;427;436;-1;422;16;-1;-1
NtAllocateUserPhysicalPages;15;431;413;17;408;16;14;15;14;14;15;16;14;-1;16;16;-1;-1;16;16;15;16;424;-1;16;426;435;16;421;17;16;14
NtAllocateUuids;16;430;412;18;407;17;15;16;15;15;16;17;15;9;17;17;9;9;17;17;16;17;423;9;17;425;434;17;420;18;17;15
NtAllocateVirtualMemory;17;429;411;19;406;18;16;17;16;16;17;18;16;10;18;18;10;10;18;18;17;18;422;10;18;424;433;18;419;19;18;16
NtAlpcAcceptConnectPort;-1;428;410;20;405;19;-1;-1;-1;-1;-1;-1;-1;-1;19;-1;-1;-1;-1;-1;-1;19;421;-1;19;423;432;-1;418;20;19;-1
NtAlpcCancelMessage;-1;427;409;21;404;20;-1;-1;-1;-1;-1;-1;-1;-1;20;-1;-1;-1;-1;-1;-1;20;420;-1;20;422;431;-1;417;21;20;-1
NtAlpcConnectPort;-1;425;407;22;402;21;-1;-1;-1;-1;-1;-1;-1;-1;21;-1;-1;-1;-1;-1;-1;21;418;-1;21;420;429;-1;415;22;21;-1
NtAlpcConnectPortEx;-1;426;408;-1;403;-1;-1;-1;-1;-1;-1;-1;-1;-1;-1;-1;-1;-1;-1;-1;-1;-1;419;-1;-1;421;430;-1;416;-1;-1;-1
NtAlpcCreatePort;-1;424;406;23;401;22;-1;-1;-1;-1;-1;-1;-1;-1;22;-1;-1;-1;-1;-1;-1;22;417;-1;22;419;428;-1;414;23;22;-1
NtAlpcCreatePortSection;-1;423;405;24;400;23;-1;-1;-1;-1;-1;-1;-1;-1;23;-1;-1;-1;-1;-1;-1;23;416;-1;23;418;427;-1;413;24;23;-1
NtAlpcCreateResourceReserve;-1;422;404;25;399;24;-1;-1;-1;-1;-1;-1;-1;-1;24;-1;-1;-1;-1;-1;-1;24;415;-1;24;417;426;-1;412;25;24;-1
NtAlpcCreateSectionView;-1;421;403;26;398;25;-1;-1;-1;-1;-1;-1;-1;-1;25;-1;-1;-1;-1;-1;-1;25;414;-1;25;416;425;-1;411;26;25;-1
NtAlpcCreateSecurityContext;-1;420;402;27;397;26;-1;-1;-1;-1;-1;-1;-1;-1;26;-1;-1;-1;-1;-1;-1;26;413;-1;26;415;424;-1;410;27;26;-1
NtAlpcDeletePortSection;-1;419;401;28;396;27;-1;-1;-1;-1;-1;-1;-1;-1;27;-1;-1;-1;-1;-1;-1;27;412;-1;27;414;423;-1;409;28;27;-1
NtAlpcDeleteResourceReserve;-1;418;400;29;395;28;-1;-1;-1;-1;-1;-1;-1;-1;28;-1;-1;-1;-1;-1;-1;28;411;-1;28;413;422;-1;408;29;28;-1
NtAlpcDeleteSectionView;-1;417;399;30;394;29;-1;-1;-1;-1;-1;-1;-1;-1;29;-1;-1;-1;-1;-1;-1;29;410;-1;29;412;421;-1;407;30;29;-1
NtAlpcDeleteSecurityContext;-1;416;398;31;393;30;-1;-1;-1;-1;-1;-1;-1;-1;30;-1;-1;-1;-1;-1;-1;30;409;-1;30;411;420;-1;406;31;30;-1
NtAlpcDisconnectPort;-1;415;397;32;392;31;-1;-1;-1;-1;-1;-1;-1;-1;31;-1;-1;-1;-1;-1;-1;31;408;-1;31;410;419;-1;405;32;31;-1
NtAlpcImpersonateClientContainerOfPort;-1;414;-1;-1;-1;-1;-1;-1;-1;-1;-1;-1;-1;-1;-1;-1;-1;-1;-1;-1;-1;-1;407;-1;-1;409;418;-1;404;-1;-1;-1
NtAlpcImpersonateClientOfPort;-1;413;396;33;391;32;-1;-1;-1;-1;-1;-1;-1;-1;32;-1;-1;-1;-1;-1;-1;32;406;-1;32;408;417;-1;403;33;32;-1
NtAlpcOpenSenderProcess;-1;412;395;34;390;33;-1;-1;-1;-1;-1;-1;-1;-1;33;-1;-1;-1;-1;-1;-1;33;405;-1;33;407;416;-1;402;34;33;-1
NtAlpcOpenSenderThread;-1;411;394;35;389;34;-1;-1;-1;-1;-1;-1;-1;-1;34;-1;-1;-1;-1;-1;-1;34;404;-1;34;406;415;-1;401;35;34;-1
NtAlpcQueryInformation;-1;410;393;36;388;35;-1;-1;-1;-1;-1;-1;-1;-1;35;-1;-1;-1;-1;-1;-1;35;403;-1;35;405;414;-1;400;36;35;-1
NtAlpcQueryInformationMessage;-1;409;392;37;387;36;-1;-1;-1;-1;-1;-1;-1;-1;36;-1;-1;-1;-1;-1;-1;36;402;-1;36;404;413;-1;399;37;36;-1
NtAlpcRevokeSecurityContext;-1;408;391;38;386;37;-1;-1;-1;-1;-1;-1;-1;-1;37;-1;-1;-1;-1;-1;-1;37;401;-1;37;403;412;-1;398;38;37;-1
NtAlpcSendWaitReceivePort;-1;407;390;39;385;38;-1;-1;-1;-1;-1;-1;-1;-1;38;-1;-1;-1;-1;-1;-1;38;400;-1;38;402;411;-1;397;39;38;-1
NtAlpcSetInformation;-1;406;389;40;384;39;-1;-1;-1;-1;-1;-1;-1;-1;39;-1;-1;-1;-1;-1;-1;39;399;-1;39;401;410;-1;396;40;39;-1
NtApphelpCacheControl;-1;405;388;41;383;40;-1;-1;-1;-1;-1;19;-1;-1;40;19;-1;-1;19;19;-1;40;398;-1;40;400;409;19;395;41;40;-1
NtAreMappedFilesTheSame;18;404;387;42;382;41;17;18;17;17;18;20;17;-1;41;20;-1;-1;20;20;18;41;397;-1;41;399;408;20;394;42;41;17
NtAssignProcessToJobObject;19;403;386;43;381;42;18;19;18;18;19;21;18;-1;42;21;-1;-1;21;21;19;42;396;-1;42;398;407;21;393;43;42;18
NtAssociateWaitCompletionPacket;-1;402;385;-1;380;-1;-1;-1;-1;-1;-1;-1;-1;-1;-1;-1;-1;-1;-1;-1;-1;-1;395;-1;-1;397;406;-1;392;-1;-1;-1
NtCallEnclave;-1;-1;-1;-1;-1;-1;-1;-1;-1;-1;-1;-1;-1;-1;-1;-1;-1;-1;-1;-1;-1;-1;-1;-1;-1;-1;404;-1;-1;-1;-1;-1
NtCallbackReturn;20;401;384;44;379;43;19;20;19;19;20;22;19;11;43;22;11;11;22;22;20;43;394;11;43;396;405;22;391;44;43;19
NtCancelDeviceWakeupRequest;21;-1;-1;-1;-1;44;22;21;22;22;21;23;22;-1;44;23;-1;-1;23;23;21;44;-1;-1;44;-1;-1;23;-1;-1;44;22
NtCancelIoFile;22;400;383;45;378;45;20;22;20;20;22;24;20;12;45;24;12;12;24;24;22;45;393;12;45;395;403;24;390;45;45;20
NtCancelIoFileEx;-1;399;382;46;377;373;-1;-1;-1;-1;-1;-1;-1;-1;369;-1;-1;-1;-1;-1;-1;369;392;-1;369;394;402;-1;389;46;369;-1
NtCancelSynchronousIoFile;-1;398;381;47;376;374;-1;-1;-1;-1;-1;-1;-1;-1;370;-1;-1;-1;-1;-1;-1;370;391;-1;370;393;401;-1;388;47;370;-1
NtCancelTimer;23;397;380;48;375;46;21;23;21;21;23;25;21;13;46;25;13;13;25;25;23;46;390;13;46;392;400;25;387;48;46;21
NtCancelTimer2;-1;68;67;-1;-1;-1;-1;-1;-1;-1;-1;-1;-1;-1;-1;-1;-1;-1;-1;-1;-1;-1;68;-1;-1;68;69;-1;68;-1;-1;-1
NtCancelWaitCompletionPacket;-1;396;379;-1;374;-1;-1;-1;-1;-1;-1;-1;-1;-1;-1;-1;-1;-1;-1;-1;-1;-1;389;-1;-1;391;399;-1;386;-1;-1;-1
NtClearAllSavepointsTransaction;-1;-1;-1;-1;-1;286;-1;-1;-1;-1;-1;-1;-1;-1;-1;-1;-1;-1;-1;-1;-1;-1;-1;-1;-1;-1;-1;-1;-1;-1;-1;-1
NtClearEvent;24;395;378;49;373;47;23;24;23;23;24;26;23;14;47;26;14;14;26;26;24;47;388;14;47;390;398;26;385;49;47;23
NtClearSavepointTransaction;-1;-1;-1;-1;-1;285;-1;-1;-1;-1;-1;-1;-1;-1;-1;-1;-1;-1;-1;-1;-1;-1;-1;-1;-1;-1;-1;-1;-1;-1;-1;-1
NtClose;25;394;377;50;372;48;24;25;24;24;25;27;24;15;48;27;15;15;27;27;25;48;387;15;48;389;397;27;384;50;48;24
NtCloseObjectAuditAlarm;26;393;376;51;371;49;25;26;25;25;26;28;25;16;49;28;16;16;28;28;26;49;386;16;49;388;396;28;383;51;49;25
NtCommitComplete;-1;392;375;52;370;95;-1;-1;-1;-1;-1;-1;-1;-1;95;-1;-1;-1;-1;-1;-1;95;385;-1;95;387;395;-1;382;52;95;-1
NtCommitEnlistment;-1;391;374;53;369;87;-1;-1;-1;-1;-1;-1;-1;-1;87;-1;-1;-1;-1;-1;-1;87;384;-1;87;386;394;-1;381;53;87;-1
NtCommitRegistryTransaction;-1;454;-1;-1;-1;-1;-1;-1;-1;-1;-1;-1;-1;-1;-1;-1;-1;-1;-1;-1;-1;-1;-1;-1;-1;448;458;-1;-1;-1;-1;-1
NtCommitTransaction;-1;390;373;54;368;91;-1;-1;-1;-1;-1;-1;-1;-1;91;-1;-1;-1;-1;-1;-1;91;383;-1;91;385;393;-1;380;54;91;-1
NtCompactKeys;27;389;372;55;367;50;-1;27;-1;-1;27;29;-1;-1;50;29;-1;-1;29;29;27;50;382;-1;50;384;392;29;379;55;50;-1
NtCompareObjects;-1;388;-1;-1;-1;-1;-1;-1;-1;-1;-1;-1;-1;-1;-1;-1;-1;-1;-1;-1;-1;-1;381;-1;-1;383;391;-1;378;-1;-1;-1
NtCompareSigningLevels;-1;387;-1;-1;-1;-1;-1;-1;-1;-1;-1;-1;-1;-1;-1;-1;-1;-1;-1;-1;-1;-1;-1;-1;-1;-1;390;-1;-1;-1;-1;-1
NtCompareTokens;28;386;371;56;366;51;-1;28;-1;-1;28;30;-1;-1;51;30;-1;-1;30;30;28;51;380;-1;51;382;389;30;377;56;51;-1
NtCompleteConnectPort;29;385;370;57;365;52;26;29;26;26;29;31;26;17;52;31;17;17;31;31;29;52;379;17;52;381;388;31;376;57;52;26
NtCompressKey;30;384;369;58;364;53;-1;30;-1;-1;30;32;-1;-1;53;32;-1;-1;32;32;30;53;378;-1;53;380;387;32;375;58;53;-1
NtConnectPort;31;383;368;59;363;54;27;31;27;27;31;33;27;18;54;33;18;18;33;33;31;54;377;18;54;379;386;33;374;59;54;27
NtContinue;32;382;367;60;362;55;28;32;28;28;32;34;28;19;55;34;19;19;34;34;32;55;376;19;55;378;385;34;373;60;55;28
NtConvertBetweenAuxiliaryCounterAndPerformanceCounter;-1;381;-1;-1;-1;-1;-1;-1;-1;-1;-1;-1;-1;-1;-1;-1;-1;-1;-1;-1;-1;-1;-1;-1;-1;-1;384;-1;-1;-1;-1;-1
NtCreateChannel;-1;-1;-1;-1;-1;-1;241;-1;241;241;-1;-1;241;204;-1;-1;204;205;-1;-1;-1;-1;-1;204;-1;-1;-1;-1;-1;-1;-1;241
NtCreateDebugObject;33;380;366;61;361;56;-1;33;-1;-1;33;35;-1;-1;56;35;-1;-1;35;35;33;56;375;-1;56;377;383;35;372;61;56;-1
NtCreateDirectoryObject;34;379;365;62;360;57;29;34;29;29;34;36;29;20;57;36;20;20;36;36;34;57;374;20;57;376;382;36;371;62;57;29
NtCreateDirectoryObjectEx;-1;378;364;-1;359;-1;-1;-1;-1;-1;-1;-1;-1;-1;-1;-1;-1;-1;-1;-1;-1;-1;373;-1;-1;375;381;-1;370;-1;-1;-1
NtCreateEnclave;-1;377;-1;-1;-1;-1;-1;-1;-1;-1;-1;-1;-1;-1;-1;-1;-1;-1;-1;-1;-1;-1;372;-1;-1;374;380;-1;-1;-1;-1;-1
NtCreateEnlistment;-1;376;363;63;358;110;-1;-1;-1;-1;-1;-1;-1;-1;111;-1;-1;-1;-1;-1;-1;111;371;-1;111;373;379;-1;369;63;111;-1
NtCreateEvent;35;375;362;64;357;58;30;35;30;30;35;37;30;21;58;37;21;21;37;37;35;58;370;21;58;372;378;37;368;64;58;30
NtCreateEventPair;36;374;361;65;356;59;31;36;31;31;36;38;31;22;59;38;22;22;38;38;36;59;369;22;59;371;377;38;367;65;59;31
NtCreateFile;37;373;360;66;355;60;32;37;32;32;37;39;32;23;60;39;23;23;39;39;37;60;368;23;60;370;376;39;366;66;60;32
NtCreateIRTimer;-1;370;357;-1;353;-1;-1;-1;-1;-1;-1;-1;-1;-1;-1;-1;-1;-1;-1;-1;-1;-1;365;-1;-1;367;373;-1;363;-1;-1;-1
NtCreateIoCompletion;38;372;359;67;354;61;33;38;33;33;38;40;33;24;61;40;24;24;40;40;38;61;367;24;61;369;375;40;365;67;61;33
NtCreateJobObject;39;369;356;68;352;62;34;39;34;34;39;41;34;-1;62;41;-1;-1;41;41;39;62;364;-1;62;366;372;41;362;68;62;34
NtCreateJobSet;40;368;355;69;351;63;-1;40;-1;-1;40;42;-1;-1;63;42;-1;-1;42;42;40;63;363;-1;63;365;371;42;361;69;63;-1
NtCreateKey;41;367;354;70;350;64;35;41;35;35;41;43;35;25;64;43;25;25;43;43;41;64;362;25;64;364;370;43;360;70;64;35
NtCreateKeyTransacted;-1;365;352;72;348;65;-1;-1;-1;-1;-1;-1;-1;-1;65;-1;-1;-1;-1;-1;-1;65;360;-1;65;362;368;-1;358;72;65;-1
NtCreateKeyedEvent;279;366;353;71;349;364;-1;279;-1;-1;279;289;-1;-1;360;289;-1;-1;289;289;279;360;361;-1;360;363;369;289;359;71;360;-1
NtCreateLowBoxToken;-1;346;333;-1;329;-1;-1;-1;-1;-1;-1;-1;-1;-1;-1;-1;-1;-1;-1;-1;-1;-1;341;-1;-1;343;349;-1;339;-1;-1;-1
NtCreateMailslotFile;42;364;351;73;347;66;36;42;36;36;42;44;36;26;66;44;26;26;44;44;42;66;359;26;66;361;367;44;357;73;66;36
NtCreateMutant;43;363;350;74;346;67;37;43;37;37;43;45;37;27;67;45;27;27;45;45;43;67;358;27;67;360;366;45;356;74;67;37
NtCreateNamedPipeFile;44;362;349;75;345;68;38;44;38;38;44;46;38;28;68;46;28;28;46;46;44;68;357;28;68;359;365;46;355;75;68;38
NtCreatePagingFile;45;361;348;76;344;70;39;45;39;39;45;47;39;30;70;47;29;29;47;47;45;70;356;29;70;358;364;47;354;76;70;39
NtCreatePartition;-1;337;-1;-1;-1;-1;-1;-1;-1;-1;-1;-1;-1;-1;-1;-1;-1;-1;-1;-1;-1;-1;332;-1;-1;334;340;-1;330;-1;-1;-1
NtCreatePort;46;360;347;77;343;71;40;46;40;40;46;48;40;29;71;48;30;30;48;48;46;71;355;30;71;357;363;48;353;77;71;40
NtCreatePrivateNamespace;-1;359;346;78;342;69;-1;-1;-1;-1;-1;-1;-1;-1;69;-1;-1;-1;-1;-1;-1;69;354;-1;69;356;362;-1;352;78;69;-1
NtCreateProcess;47;358;345;79;341;72;41;47;41;41;47;49;41;31;72;49;31;31;49;49;47;72;353;31;72;355;361;49;351;79;72;41
NtCreateProcessEx;48;357;344;80;340;73;-1;48;-1;-1;48;50;-1;-1;73;50;-1;-1;50;50;48;73;352;-1;73;354;360;50;350;80;73;-1
NtCreateProfile;49;356;343;81;339;74;42;49;42;42;49;51;42;32;74;51;32;32;51;51;49;74;351;32;74;353;359;51;349;81;74;42
NtCreateProfileEx;-1;355;342;82;338;-1;-1;-1;-1;-1;-1;-1;-1;-1;-1;-1;-1;-1;-1;-1;-1;-1;350;-1;-1;352;358;-1;348;82;-1;-1
NtCreateRegistryTransaction;-1;452;-1;-1;-1;-1;-1;-1;-1;-1;-1;-1;-1;-1;-1;-1;-1;-1;-1;-1;-1;-1;-1;-1;-1;446;456;-1;-1;-1;-1;-1
NtCreateResourceManager;-1;354;341;83;337;106;-1;-1;-1;-1;-1;-1;-1;-1;107;-1;-1;-1;-1;-1;-1;107;349;-1;107;351;357;-1;347;83;107;-1
NtCreateSection;50;353;340;84;336;75;43;50;43;43;50;52;43;33;75;52;33;33;52;52;50;75;348;33;75;350;356;52;346;84;75;43
NtCreateSemaphore;51;352;339;85;335;76;44;51;44;44;51;53;44;34;76;53;34;34;53;53;51;76;347;34;76;349;355;53;345;85;76;44
NtCreateSymbolicLinkObject;52;351;338;86;334;77;45;52;45;45;52;54;45;35;77;54;35;35;54;54;52;77;346;35;77;348;354;54;344;86;77;45
NtCreateThread;53;350;337;87;333;78;46;53;46;46;53;55;46;36;78;55;36;36;55;55;53;78;345;36;78;347;353;55;343;87;78;46
NtCreateThreadEx;-1;349;336;88;332;388;-1;-1;-1;-1;-1;-1;-1;-1;382;-1;-1;-1;-1;-1;-1;382;344;-1;382;346;352;-1;342;88;382;-1
NtCreateTimer;54;348;335;89;331;79;47;54;47;47;54;56;47;37;79;56;37;37;56;56;54;79;343;37;79;345;351;56;341;89;79;47
NtCreateTimer2;-1;371;358;-1;-1;-1;-1;-1;-1;-1;-1;-1;-1;-1;-1;-1;-1;-1;-1;-1;-1;-1;366;-1;-1;368;374;-1;364;-1;-1;-1
NtCreateToken;55;345;332;90;328;80;48;55;48;48;55;57;48;38;80;57;38;38;57;57;55;80;340;38;80;342;348;57;338;90;80;48
NtCreateTokenEx;-1;347;334;-1;330;-1;-1;-1;-1;-1;-1;-1;-1;-1;-1;-1;-1;-1;-1;-1;-1;-1;342;-1;-1;344;350;-1;340;-1;-1;-1
NtCreateTransaction;-1;344;331;91;327;81;-1;-1;-1;-1;-1;-1;-1;-1;81;-1;-1;-1;-1;-1;-1;81;339;-1;81;341;347;-1;337;91;81;-1
NtCreateTransactionManager;-1;343;330;92;326;100;-1;-1;-1;-1;-1;-1;-1;-1;100;-1;-1;-1;-1;-1;-1;100;338;-1;100;340;346;-1;336;92;100;-1
NtCreateUserProcess;-1;342;329;93;325;389;-1;-1;-1;-1;-1;-1;-1;-1;383;-1;-1;-1;-1;-1;-1;383;337;-1;383;339;345;-1;335;93;383;-1
NtCreateWaitCompletionPacket;-1;340;327;-1;323;-1;-1;-1;-1;-1;-1;-1;-1;-1;-1;-1;-1;-1;-1;-1;-1;-1;335;-1;-1;337;343;-1;333;-1;-1;-1
NtCreateWaitablePort;56;341;328;94;324;115;49;56;49;49;56;58;49;-1;115;58;-1;-1;58;58;56;115;336;-1;115;338;344;58;334;94;115;49
NtCreateWinStation;-1;-1;-1;-1;-1;-1;-1;-1;-1;-1;-1;-1;-1;211;-1;-1;-1;-1;-1;-1;-1;-1;-1;-1;-1;-1;-1;-1;-1;-1;-1;-1
NtCreateWnfStateName;-1;339;326;-1;322;-1;-1;-1;-1;-1;-1;-1;-1;-1;-1;-1;-1;-1;-1;-1;-1;-1;334;-1;-1;336;342;-1;332;-1;-1;-1
NtCreateWorkerFactory;-1;338;325;95;321;381;-1;-1;-1;-1;-1;-1;-1;-1;375;-1;-1;-1;-1;-1;-1;375;333;-1;375;335;341;-1;331;95;375;-1
NtDebugActiveProcess;57;336;324;96;320;116;-1;57;-1;-1;57;59;-1;-1;116;59;-1;-1;59;59;57;116;331;-1;116;333;339;59;329;96;116;-1
NtDebugContinue;58;335;323;97;319;117;-1;58;-1;-1;58;60;-1;-1;117;60;-1;-1;60;60;58;117;330;-1;117;332;338;60;328;97;117;-1
NtDelayExecution;59;334;322;98;318;118;50;59;50;50;59;61;50;39;118;61;39;39;61;61;59;118;329;39;118;331;337;61;327;98;118;50
NtDeleteAtom;60;333;321;99;317;119;51;60;51;51;60;62;51;40;119;62;40;40;62;62;60;119;328;40;119;330;336;62;326;99;119;51
NtDeleteBootEntry;61;332;320;100;316;120;-1;61;-1;-1;61;63;-1;-1;120;63;-1;-1;63;63;61;120;327;-1;120;329;335;63;325;100;120;-1
NtDeleteDriverEntry;-1;331;319;101;315;121;-1;-1;-1;-1;-1;64;-1;-1;121;64;-1;-1;64;64;-1;121;326;-1;121;328;334;64;324;101;121;-1
NtDeleteFile;62;330;318;102;314;122;52;62;52;52;62;65;52;41;122;65;41;41;65;65;62;122;325;41;122;327;333;65;323;102;122;52
NtDeleteKey;63;329;317;103;313;123;53;63;53;53;63;66;53;42;123;66;42;42;66;66;63;123;324;42;123;326;332;66;322;103;123;53
NtDeleteObjectAuditAlarm;64;328;316;104;312;125;54;64;54;54;64;67;54;43;125;67;43;43;67;67;64;125;323;43;125;325;331;67;321;104;125;54
NtDeletePrivateNamespace;-1;327;315;105;311;124;-1;-1;-1;-1;-1;-1;-1;-1;124;-1;-1;-1;-1;-1;-1;124;322;-1;124;324;330;-1;320;105;124;-1
NtDeleteValueKey;65;326;314;106;310;126;55;65;55;55;65;68;55;44;126;68;44;44;68;68;65;126;321;44;126;323;329;68;319;106;126;55
NtDeleteWnfStateData;-1;325;313;-1;309;-1;-1;-1;-1;-1;-1;-1;-1;-1;-1;-1;-1;-1;-1;-1;-1;-1;320;-1;-1;322;328;-1;318;-1;-1;-1
NtDeleteWnfStateName;-1;324;312;-1;308;-1;-1;-1;-1;-1;-1;-1;-1;-1;-1;-1;-1;-1;-1;-1;-1;-1;319;-1;-1;321;327;-1;317;-1;-1;-1
NtDeviceIoControlFile;66;323;311;107;307;127;56;66;56;56;66;69;56;45;127;69;45;45;69;69;66;127;318;45;127;320;326;69;316;107;127;56
NtDisableLastKnownGood;-1;322;310;108;306;-1;-1;-1;-1;-1;-1;-1;-1;-1;-1;-1;-1;-1;-1;-1;-1;-1;317;-1;-1;319;325;-1;315;108;-1;-1
NtDisplayString;67;321;309;109;305;128;57;67;57;57;67;70;57;46;128;70;46;46;70;70;67;128;316;46;128;318;324;70;314;109;128;57
NtDrawText;-1;320;308;110;304;-1;-1;-1;-1;-1;-1;-1;-1;-1;-1;-1;-1;-1;-1;-1;-1;-1;315;-1;-1;317;323;-1;313;110;-1;-1
NtDuplicateObject;68;319;307;111;303;129;58;68;58;58;68;71;58;47;129;71;47;47;71;71;68;129;314;47;129;316;322;71;312;111;129;58
NtDuplicateToken;69;318;306;112;302;130;59;69;59;59;69;72;59;48;130;72;48;48;72;72;69;130;313;48;130;315;321;72;311;112;130;59
NtEnableLastKnownGood;-1;317;305;113;301;-1;-1;-1;-1;-1;-1;-1;-1;-1;-1;-1;-1;-1;-1;-1;-1;-1;312;-1;-1;314;320;-1;310;113;-1;-1
NtEnumerateBootEntries;70;316;304;114;300;131;-1;70;-1;-1;70;73;-1;-1;131;73;-1;-1;73;73;70;131;311;-1;131;313;319;73;309;114;131;-1
NtEnumerateDriverEntries;-1;315;303;115;299;132;-1;-1;-1;-1;-1;74;-1;-1;132;74;-1;-1;74;74;-1;132;310;-1;132;312;318;74;308;115;132;-1
NtEnumerateKey;71;314;302;116;298;133;60;71;60;60;71;75;60;49;133;75;49;49;75;75;71;133;309;49;133;311;317;75;307;116;133;60
NtEnumerateSystemEnvironmentValuesEx;72;313;301;117;297;134;-1;72;-1;-1;72;76;-1;-1;134;76;-1;-1;76;76;72;134;308;-1;134;310;316;76;306;117;134;-1
NtEnumerateTransactionObject;-1;312;300;118;296;135;-1;-1;-1;-1;-1;-1;-1;-1;135;-1;-1;-1;-1;-1;-1;135;307;-1;135;309;315;-1;305;118;135;-1
NtEnumerateValueKey;73;311;299;119;295;136;61;73;61;61;73;77;61;50;136;77;50;50;77;77;73;136;306;50;136;308;314;77;304;119;136;61
NtExtendSection;74;310;298;120;294;137;62;74;62;62;74;78;62;51;137;78;51;51;78;78;74;137;305;51;137;307;313;78;303;120;137;62
NtFilterBootOption;-1;309;297;-1;293;-1;-1;-1;-1;-1;-1;-1;-1;-1;-1;-1;-1;-1;-1;-1;-1;-1;304;-1;-1;306;312;-1;302;-1;-1;-1
NtFilterToken;75;307;295;121;291;138;63;75;63;63;75;79;63;-1;138;79;-1;-1;79;79;75;138;302;-1;138;304;310;79;300;121;138;63
NtFilterTokenEx;-1;308;296;-1;292;-1;-1;-1;-1;-1;-1;-1;-1;-1;-1;-1;-1;-1;-1;-1;-1;-1;303;-1;-1;305;311;-1;301;-1;-1;-1
NtFindAtom;76;306;294;122;290;139;64;76;64;64;76;80;64;52;139;80;52;52;80;80;76;139;301;52;139;303;309;80;299;122;139;64
NtFlushBuffersFile;77;304;292;123;288;140;65;77;65;65;77;81;65;53;140;81;53;53;81;81;77;140;299;53;140;301;307;81;297;123;140;65
NtFlushBuffersFileEx;-1;305;293;-1;289;-1;-1;-1;-1;-1;-1;-1;-1;-1;-1;-1;-1;-1;-1;-1;-1;-1;300;-1;-1;302;308;-1;298;-1;-1;-1
NtFlushInstallUILanguage;-1;303;291;124;287;394;-1;-1;-1;-1;-1;-1;-1;-1;387;-1;-1;-1;-1;-1;-1;387;298;-1;387;300;306;-1;296;124;387;-1
NtFlushInstructionCache;78;302;290;125;286;141;66;78;66;66;78;82;66;54;141;82;54;54;82;82;78;141;297;54;141;299;305;82;295;125;141;66
NtFlushKey;79;301;289;126;285;142;67;79;67;67;79;83;67;55;142;83;55;55;83;83;79;142;296;55;142;298;304;83;294;126;142;67
NtFlushProcessWriteBuffers;-1;300;288;127;284;143;-1;-1;-1;-1;-1;-1;-1;-1;143;-1;-1;-1;-1;-1;-1;143;295;-1;143;297;303;-1;293;127;143;-1
NtFlushVirtualMemory;80;299;287;128;283;144;68;80;68;68;80;84;68;56;144;84;56;56;84;84;80;144;294;56;144;296;302;84;292;128;144;68
NtFlushWriteBuffer;81;298;286;129;282;145;69;81;69;69;81;85;69;57;145;85;57;57;85;85;81;145;293;57;145;295;301;85;291;129;145;69
NtFreeUserPhysicalPages;82;297;285;130;281;146;70;82;70;70;82;86;70;-1;146;86;-1;-1;86;86;82;146;292;-1;146;294;300;86;290;130;146;70
NtFreeVirtualMemory;83;296;284;131;280;147;71;83;71;71;83;87;71;58;147;87;58;58;87;87;83;147;291;58;147;293;299;87;289;131;147;71
NtFreezeRegistry;-1;295;283;132;279;148;-1;-1;-1;-1;-1;-1;-1;-1;148;-1;-1;-1;-1;-1;-1;148;290;-1;148;292;298;-1;288;132;148;-1
NtFreezeTransactions;-1;294;282;133;278;149;-1;-1;-1;-1;-1;-1;-1;-1;149;-1;-1;-1;-1;-1;-1;149;289;-1;149;291;297;-1;287;133;149;-1
NtFsControlFile;84;293;281;134;277;150;72;84;72;72;84;88;72;59;150;88;59;59;88;88;84;150;288;59;150;290;296;88;286;134;150;72
NtGetCachedSigningLevel;-1;292;280;-1;276;-1;-1;-1;-1;-1;-1;-1;-1;-1;-1;-1;-1;-1;-1;-1;-1;-1;287;-1;-1;289;295;-1;285;-1;-1;-1
NtGetCompleteWnfStateSubscription;-1;291;279;-1;-1;-1;-1;-1;-1;-1;-1;-1;-1;-1;-1;-1;-1;-1;-1;-1;-1;-1;286;-1;-1;288;294;-1;284;-1;-1;-1
NtGetContextThread;85;290;278;135;275;151;73;85;73;73;85;89;73;60;151;89;60;60;89;89;85;151;285;60;151;287;293;89;283;135;151;73
NtGetCurrentProcessorNumber;-1;289;277;136;274;369;-1;-1;-1;-1;-1;294;-1;-1;365;294;-1;-1;294;294;-1;365;284;-1;365;286;292;294;282;136;365;-1
NtGetCurrentProcessorNumberEx;-1;288;-1;-1;-1;-1;-1;-1;-1;-1;-1;-1;-1;-1;-1;-1;-1;-1;-1;-1;-1;-1;283;-1;-1;285;291;-1;281;-1;-1;-1
NtGetDevicePowerState;86;287;276;137;273;152;74;86;74;74;86;90;74;-1;152;90;-1;-1;90;90;86;152;282;-1;152;284;290;90;280;137;152;74
NtGetMUIRegistryInfo;-1;286;275;138;272;395;-1;-1;-1;-1;-1;-1;-1;-1;388;-1;-1;-1;-1;-1;-1;388;281;-1;388;283;289;-1;279;138;388;-1
NtGetNextProcess;-1;285;274;139;271;371;-1;-1;-1;-1;-1;-1;-1;-1;367;-1;-1;-1;-1;-1;-1;367;280;-1;367;282;288;-1;278;139;367;-1
NtGetNextThread;-1;284;273;140;270;372;-1;-1;-1;-1;-1;-1;-1;-1;368;-1;-1;-1;-1;-1;-1;368;279;-1;368;281;287;-1;277;140;368;-1
NtGetNlsSectionPtr;-1;283;272;141;269;153;-1;-1;-1;-1;-1;-1;-1;-1;153;-1;-1;-1;-1;-1;-1;153;278;-1;153;280;286;-1;276;141;153;-1
NtGetNotificationResourceManager;-1;282;271;142;268;108;-1;-1;-1;-1;-1;-1;-1;-1;109;-1;-1;-1;-1;-1;-1;109;277;-1;109;279;285;-1;275;142;109;-1
NtGetPlugPlayEvent;87;-1;-1;143;-1;154;75;87;75;75;87;91;75;61;154;91;61;61;91;91;87;154;-1;61;154;-1;-1;91;-1;143;154;75
NtGetTickCount;-1;-1;-1;-1;-1;-1;76;-1;76;76;-1;-1;76;62;-1;-1;62;62;-1;-1;-1;-1;-1;62;-1;-1;-1;-1;-1;-1;-1;76
NtGetWriteWatch;88;281;270;144;267;155;77;88;77;77;88;92;77;-1;155;92;-1;-1;92;92;88;155;276;-1;155;278;284;92;274;144;155;77
NtImpersonateAnonymousToken;89;280;269;145;266;156;78;89;78;78;89;93;78;-1;156;93;-1;-1;93;93;89;156;275;-1;156;277;283;93;273;145;156;78
NtImpersonateClientOfPort;90;279;268;146;265;157;79;90;79;79;90;94;79;63;157;94;63;63;94;94;90;157;274;63;157;276;282;94;272;146;157;79
NtImpersonateThread;91;278;267;147;264;158;80;91;80;80;91;95;80;64;158;95;64;64;95;95;91;158;273;64;158;275;281;95;271;147;158;80
NtInitializeEnclave;-1;277;-1;-1;-1;-1;-1;-1;-1;-1;-1;-1;-1;-1;-1;-1;-1;-1;-1;-1;-1;-1;272;-1;-1;274;280;-1;-1;-1;-1;-1
NtInitializeNlsFiles;-1;276;266;148;263;159;-1;-1;-1;-1;-1;-1;-1;-1;159;-1;-1;-1;-1;-1;-1;159;271;-1;159;273;279;-1;270;148;159;-1
NtInitializeRegistry;92;275;265;149;262;160;81;92;81;81;92;96;81;65;160;96;65;65;96;96;92;160;270;65;160;272;278;96;269;149;160;81
NtInitiatePowerAction;93;274;264;150;261;161;82;93;82;82;93;97;82;-1;161;97;-1;-1;97;97;93;161;269;-1;161;271;277;97;268;150;161;82
NtIsProcessInJob;94;273;263;151;260;162;-1;94;-1;-1;94;98;-1;-1;162;98;-1;-1;98;98;94;162;268;-1;162;270;276;98;267;151;162;-1
NtIsSystemResumeAutomatic;95;272;262;152;259;163;83;95;83;83;95;99;83;-1;163;99;-1;-1;99;99;95;163;267;-1;163;269;275;99;266;152;163;83
NtIsUILanguageComitted;-1;271;261;153;258;393;-1;-1;-1;-1;-1;-1;-1;-1;386;-1;-1;-1;-1;-1;-1;386;266;-1;386;268;274;-1;265;153;386;-1
NtListTransactions;-1;-1;-1;-1;-1;392;-1;-1;-1;-1;-1;-1;-1;-1;-1;-1;-1;-1;-1;-1;-1;-1;-1;-1;-1;-1;-1;-1;-1;-1;-1;-1
NtListenChannel;-1;-1;-1;-1;-1;-1;242;-1;242;242;-1;-1;242;205;-1;-1;205;206;-1;-1;-1;-1;-1;205;-1;-1;-1;-1;-1;-1;-1;242
NtListenPort;96;270;260;154;257;164;84;96;84;84;96;100;84;66;164;100;66;66;100;100;96;164;265;66;164;267;273;100;264;154;164;84
NtLoadDriver;97;269;259;155;256;165;85;97;85;85;97;101;85;67;165;101;67;67;101;101;97;165;264;67;165;266;272;101;263;155;165;85
NtLoadEnclaveData;-1;268;-1;-1;-1;-1;-1;-1;-1;-1;-1;-1;-1;-1;-1;-1;-1;-1;-1;-1;-1;-1;263;-1;-1;265;271;-1;-1;-1;-1;-1
NtLoadHotPatch;-1;267;-1;-1;-1;-1;-1;-1;-1;-1;-1;-1;-1;-1;-1;-1;-1;-1;-1;-1;-1;-1;-1;-1;-1;-1;270;-1;-1;-1;-1;-1
NtLoadKey;98;266;258;156;255;166;86;98;86;86;98;102;86;68;166;102;68;68;102;102;98;166;262;68;166;264;269;102;262;156;166;86
NtLoadKey2;99;265;257;157;254;167;87;99;87;87;99;103;87;69;167;103;69;69;103;103;99;167;261;69;167;263;268;103;261;157;167;87
NtLoadKeyEx;-1;264;256;158;253;168;-1;-1;-1;-1;-1;104;-1;-1;168;104;-1;-1;104;104;-1;168;260;-1;168;262;267;104;260;158;168;-1
NtLockFile;100;263;255;159;252;169;88;100;88;88;100;105;88;70;169;105;70;70;105;105;100;169;259;70;169;261;266;105;259;159;169;88
NtLockProductActivationKeys;101;262;254;160;251;170;-1;101;-1;-1;101;106;-1;-1;170;106;-1;-1;106;106;101;170;258;-1;170;260;265;106;258;160;170;-1
NtLockRegistryKey;102;261;253;161;250;171;-1;102;-1;-1;102;107;-1;-1;171;107;-1;-1;107;107;102;171;257;-1;171;259;264;107;257;161;171;-1
NtLockVirtualMemory;103;260;252;162;249;172;89;103;89;89;103;108;89;71;172;108;71;71;108;108;103;172;256;71;172;258;263;108;256;162;172;89
NtMakePermanentObject;104;259;251;163;248;173;-1;104;-1;-1;104;109;-1;-1;173;109;-1;-1;109;109;104;173;255;-1;173;257;262;109;255;163;173;-1
NtMakeTemporaryObject;105;258;250;164;247;174;90;105;90;90;105;110;90;72;174;110;72;72;110;110;105;174;254;72;174;256;261;110;254;164;174;90
NtManagePartition;-1;251;-1;-1;-1;-1;-1;-1;-1;-1;-1;-1;-1;-1;-1;-1;-1;-1;-1;-1;-1;-1;247;-1;-1;249;254;-1;247;-1;-1;-1
NtMapCMFModule;-1;257;249;165;246;391;-1;-1;-1;-1;-1;-1;-1;-1;385;-1;-1;-1;-1;-1;-1;385;253;-1;385;255;260;-1;253;165;385;-1
NtMapUserPhysicalPages;106;256;248;166;245;175;91;106;91;91;106;111;91;-1;175;111;-1;-1;111;111;106;175;252;-1;175;254;259;111;252;166;175;91
NtMapUserPhysicalPagesScatter;107;255;247;167;244;176;92;107;92;92;107;112;92;-1;176;112;-1;-1;112;112;107;176;251;-1;176;253;258;112;251;167;176;92
NtMapViewOfSection;108;254;246;168;243;177;93;108;93;93;108;113;93;73;177;113;73;73;113;113;108;177;250;73;177;252;257;113;250;168;177;93
NtMarshallTransaction;-1;-1;-1;-1;-1;378;-1;-1;-1;-1;-1;-1;-1;-1;-1;-1;-1;-1;-1;-1;-1;-1;-1;-1;-1;-1;-1;-1;-1;-1;-1;-1
NtModifyBootEntry;109;253;245;169;242;178;-1;109;-1;-1;109;114;-1;-1;178;114;-1;-1;114;114;109;178;249;-1;178;251;256;114;249;169;178;-1
NtModifyDriverEntry;-1;252;244;170;241;179;-1;-1;-1;-1;-1;115;-1;-1;179;115;-1;-1;115;115;-1;179;248;-1;179;250;255;115;248;170;179;-1
NtNotifyChangeDirectoryFile;110;250;243;171;240;180;94;110;94;94;110;116;94;74;180;116;74;74;116;116;110;180;246;74;180;248;252;116;246;171;180;94
NtNotifyChangeDirectoryFileEx;-1;-1;-1;-1;-1;-1;-1;-1;-1;-1;-1;-1;-1;-1;-1;-1;-1;-1;-1;-1;-1;-1;-1;-1;-1;-1;253;-1;-1;-1;-1;-1
NtNotifyChangeKey;111;249;242;172;239;181;95;111;95;95;111;117;95;75;181;117;75;75;117;117;111;181;245;75;181;247;251;117;245;172;181;95
NtNotifyChangeMultipleKeys;112;248;241;173;238;182;96;112;96;96;112;118;96;-1;182;118;-1;-1;118;118;112;182;244;-1;182;246;250;118;244;173;182;96
NtNotifyChangeSession;-1;247;240;174;237;-1;-1;-1;-1;-1;-1;-1;-1;-1;-1;-1;-1;-1;-1;-1;-1;-1;243;-1;-1;245;249;-1;243;174;-1;-1
NtOpenChannel;-1;-1;-1;-1;-1;-1;243;-1;243;243;-1;-1;243;206;-1;-1;206;207;-1;-1;-1;-1;-1;206;-1;-1;-1;-1;-1;-1;-1;243
NtOpenDirectoryObject;113;246;239;175;236;183;97;113;97;97;113;119;97;76;183;119;76;76;119;119;113;183;242;76;183;244;248;119;242;175;183;97
NtOpenEnlistment;-1;245;238;176;235;111;-1;-1;-1;-1;-1;-1;-1;-1;112;-1;-1;-1;-1;-1;-1;112;241;-1;112;243;247;-1;241;176;112;-1
NtOpenEvent;114;244;237;177;234;184;98;114;98;98;114;120;98;77;184;120;77;77;120;120;114;184;240;77;184;242;246;120;240;177;184;98
NtOpenEventPair;115;243;236;178;233;185;99;115;99;99;115;121;99;78;185;121;78;78;121;121;115;185;239;78;185;241;245;121;239;178;185;99
NtOpenFile;116;242;235;179;232;186;100;116;100;100;116;122;100;79;186;122;79;79;122;122;116;186;238;79;186;240;244;122;238;179;186;100
NtOpenIoCompletion;117;241;234;180;231;187;101;117;101;101;117;123;101;80;187;123;80;80;123;123;117;187;237;80;187;239;243;123;237;180;187;101
NtOpenJobObject;118;240;233;181;230;188;102;118;102;102;118;124;102;-1;188;124;-1;-1;124;124;118;188;236;-1;188;238;242;124;236;181;188;102
NtOpenKey;119;239;232;182;229;189;103;119;103;103;119;125;103;81;189;125;81;81;125;125;119;189;235;81;189;237;241;125;235;182;189;103
NtOpenKeyEx;-1;237;230;183;227;-1;-1;-1;-1;-1;-1;-1;-1;-1;-1;-1;-1;-1;-1;-1;-1;-1;233;-1;-1;235;239;-1;233;183;-1;-1
NtOpenKeyTransacted;-1;236;229;185;226;190;-1;-1;-1;-1;-1;-1;-1;-1;190;-1;-1;-1;-1;-1;-1;190;232;-1;190;234;238;-1;232;185;190;-1
NtOpenKeyTransactedEx;-1;235;228;186;225;-1;-1;-1;-1;-1;-1;-1;-1;-1;-1;-1;-1;-1;-1;-1;-1;-1;231;-1;-1;233;237;-1;231;186;-1;-1
NtOpenKeyedEvent;280;238;231;184;228;365;-1;280;-1;-1;280;290;-1;-1;361;290;-1;-1;290;290;280;361;234;-1;361;236;240;290;234;184;361;-1
NtOpenMutant;120;234;227;187;224;191;104;120;104;104;120;126;104;82;191;126;82;82;126;126;120;191;230;82;191;232;236;126;230;187;191;104
NtOpenObjectAuditAlarm;121;233;226;188;223;193;105;121;105;105;121;127;105;83;193;127;83;83;127;127;121;193;229;83;193;231;235;127;229;188;193;105
NtOpenPartition;-1;228;-1;-1;-1;-1;-1;-1;-1;-1;-1;-1;-1;-1;-1;-1;-1;-1;-1;-1;-1;-1;224;-1;-1;226;230;-1;224;-1;-1;-1
NtOpenPrivateNamespace;-1;232;225;189;222;192;-1;-1;-1;-1;-1;-1;-1;-1;192;-1;-1;-1;-1;-1;-1;192;228;-1;192;230;234;-1;228;189;192;-1
NtOpenProcess;122;231;224;190;221;194;106;122;106;106;122;128;106;84;194;128;84;84;128;128;122;194;227;84;194;229;233;128;227;190;194;106
NtOpenProcessToken;123;230;223;191;220;195;107;123;107;107;123;129;107;85;195;129;85;85;129;129;123;195;226;85;195;228;232;129;226;191;195;107
NtOpenProcessTokenEx;124;229;222;192;219;196;-1;124;-1;-1;124;130;-1;-1;196;130;-1;-1;130;130;124;196;225;-1;196;227;231;130;225;192;196;-1
NtOpenRegistryTransaction;-1;453;-1;-1;-1;-1;-1;-1;-1;-1;-1;-1;-1;-1;-1;-1;-1;-1;-1;-1;-1;-1;-1;-1;-1;447;457;-1;-1;-1;-1;-1
NtOpenResourceManager;-1;227;221;193;218;107;-1;-1;-1;-1;-1;-1;-1;-1;108;-1;-1;-1;-1;-1;-1;108;223;-1;108;225;229;-1;223;193;108;-1
NtOpenSection;125;226;220;194;217;197;108;125;108;108;125;131;108;86;197;131;86;86;131;131;125;197;222;86;197;224;228;131;222;194;197;108
NtOpenSemaphore;126;225;219;195;216;198;109;126;109;109;126;132;109;87;198;132;87;87;132;132;126;198;221;87;198;223;227;132;221;195;198;109
NtOpenSession;-1;224;218;196;215;199;-1;-1;-1;-1;-1;-1;-1;-1;199;-1;-1;-1;-1;-1;-1;199;220;-1;199;222;226;-1;220;196;199;-1
NtOpenSymbolicLinkObject;127;223;217;197;214;200;110;127;110;110;127;133;110;88;200;133;88;88;133;133;127;200;219;88;200;221;225;133;219;197;200;110
NtOpenThread;128;222;216;198;213;201;111;128;111;111;128;134;111;89;201;134;89;89;134;134;128;201;218;89;201;220;224;134;218;198;201;111
NtOpenThreadToken;129;221;215;199;212;202;112;129;112;112;129;135;112;90;202;135;90;90;135;135;129;202;217;90;202;219;223;135;217;199;202;112
NtOpenThreadTokenEx;130;220;214;200;211;203;-1;130;-1;-1;130;136;-1;-1;203;136;-1;-1;136;136;130;203;216;-1;203;218;222;136;216;200;203;-1
NtOpenTimer;131;219;213;201;210;204;113;131;113;113;131;137;113;91;204;137;91;91;137;137;131;204;215;91;204;217;221;137;215;201;204;113
NtOpenTransaction;-1;218;212;202;209;82;-1;-1;-1;-1;-1;-1;-1;-1;82;-1;-1;-1;-1;-1;-1;82;214;-1;82;216;220;-1;214;202;82;-1
NtOpenTransactionManager;-1;217;211;203;208;101;-1;-1;-1;-1;-1;-1;-1;-1;101;-1;-1;-1;-1;-1;-1;101;213;-1;101;215;219;-1;213;203;101;-1
NtOpenWinStation;-1;-1;-1;-1;-1;-1;-1;-1;-1;-1;-1;-1;-1;212;-1;-1;-1;-1;-1;-1;-1;-1;-1;-1;-1;-1;-1;-1;-1;-1;-1;-1
NtPlugPlayControl;132;216;210;204;207;205;114;132;114;114;132;138;114;92;205;138;92;92;138;138;132;205;212;92;205;214;218;138;212;204;205;114
NtPowerInformation;133;215;209;205;206;206;115;133;115;115;133;139;115;-1;206;139;-1;-1;139;139;133;206;211;-1;206;213;217;139;211;205;206;115
NtPrePrepareComplete;-1;212;206;208;203;93;-1;-1;-1;-1;-1;-1;-1;-1;93;-1;-1;-1;-1;-1;-1;93;208;-1;93;210;214;-1;208;208;93;-1
NtPrePrepareEnlistment;-1;211;205;209;202;85;-1;-1;-1;-1;-1;-1;-1;-1;85;-1;-1;-1;-1;-1;-1;85;207;-1;85;209;213;-1;207;209;85;-1
NtPrepareComplete;-1;214;208;206;205;94;-1;-1;-1;-1;-1;-1;-1;-1;94;-1;-1;-1;-1;-1;-1;94;210;-1;94;212;216;-1;210;206;94;-1
NtPrepareEnlistment;-1;213;207;207;204;86;-1;-1;-1;-1;-1;-1;-1;-1;86;-1;-1;-1;-1;-1;-1;86;209;-1;86;211;215;-1;209;207;86;-1
NtPrivilegeCheck;134;209;203;210;200;207;116;134;116;116;134;140;116;93;207;140;93;93;140;140;134;207;205;93;207;207;211;140;205;210;207;116
NtPrivilegeObjectAuditAlarm;135;207;201;212;198;208;118;135;118;118;135;141;118;95;208;141;95;95;141;141;135;208;203;95;208;205;209;141;203;212;208;118
NtPrivilegedServiceAuditAlarm;136;208;202;211;199;209;117;136;117;117;136;142;117;94;209;142;94;94;142;142;136;209;204;94;209;206;210;142;204;211;209;117
NtPropagationComplete;-1;206;200;213;197;379;-1;-1;-1;-1;-1;-1;-1;-1;373;-1;-1;-1;-1;-1;-1;373;202;-1;373;204;208;-1;202;213;373;-1
NtPropagationFailed;-1;205;199;214;196;380;-1;-1;-1;-1;-1;-1;-1;-1;374;-1;-1;-1;-1;-1;-1;374;201;-1;374;203;207;-1;201;214;374;-1
NtProtectVirtualMemory;137;204;198;215;195;210;119;137;119;119;137;143;119;96;210;143;96;96;143;143;137;210;200;96;210;202;206;143;200;215;210;119
NtPullTransaction;-1;-1;-1;-1;-1;377;-1;-1;-1;-1;-1;-1;-1;-1;-1;-1;-1;-1;-1;-1;-1;-1;-1;-1;-1;-1;-1;-1;-1;-1;-1;-1
NtPulseEvent;138;203;197;216;194;211;120;138;120;120;138;144;120;97;211;144;97;97;144;144;138;211;199;97;211;201;205;144;199;216;211;120
NtQueryAttributesFile;139;202;196;217;193;212;122;139;122;122;139;145;122;99;212;145;99;99;145;145;139;212;198;99;212;200;204;145;198;217;212;122
NtQueryAuxiliaryCounterFrequency;-1;146;-1;-1;-1;-1;-1;-1;-1;-1;-1;-1;-1;-1;-1;-1;-1;-1;-1;-1;-1;-1;-1;-1;-1;-1;147;-1;-1;-1;-1;-1
NtQueryBootEntryOrder;140;201;195;218;192;213;-1;140;-1;-1;140;146;-1;-1;213;146;-1;-1;146;146;140;213;197;-1;213;199;203;146;197;218;213;-1
NtQueryBootOptions;141;200;194;219;191;214;-1;141;-1;-1;141;147;-1;-1;214;147;-1;-1;147;147;141;214;196;-1;214;198;202;147;196;219;214;-1
NtQueryDebugFilterState;142;199;193;220;190;215;-1;142;-1;-1;142;148;-1;-1;215;148;-1;-1;148;148;142;215;195;-1;215;197;201;148;195;220;215;-1
NtQueryDefaultLocale;143;198;192;221;189;216;123;143;123;123;143;149;123;100;216;149;100;100;149;149;143;216;194;100;216;196;200;149;194;221;216;123
NtQueryDefaultUILanguage;144;197;191;222;188;217;124;144;124;124;144;150;124;-1;217;150;-1;-1;150;150;144;217;193;-1;217;195;199;150;193;222;217;124
NtQueryDirectoryFile;145;196;190;223;187;218;125;145;125;125;145;151;125;101;218;151;101;101;151;151;145;218;192;101;218;194;197;151;192;223;218;125
NtQueryDirectoryFileEx;-1;-1;-1;-1;-1;-1;-1;-1;-1;-1;-1;-1;-1;-1;-1;-1;-1;-1;-1;-1;-1;-1;-1;-1;-1;-1;198;-1;-1;-1;-1;-1
NtQueryDirectoryObject;146;195;189;224;186;219;126;146;126;126;146;152;126;102;219;152;102;102;152;152;146;219;191;102;219;193;196;152;191;224;219;126
NtQueryDriverEntryOrder;-1;194;188;225;185;220;-1;-1;-1;-1;-1;153;-1;-1;220;153;-1;-1;153;153;-1;220;190;-1;220;192;195;153;190;225;220;-1
NtQueryEaFile;147;193;187;226;184;221;127;147;127;127;147;154;127;103;221;154;103;103;154;154;147;221;189;103;221;191;194;154;189;226;221;127
NtQueryEvent;148;192;186;227;183;222;128;148;128;128;148;155;128;104;222;155;104;104;155;155;148;222;188;104;222;190;193;155;188;227;222;128
NtQueryFullAttributesFile;149;191;185;228;182;223;129;149;129;129;149;156;129;105;223;156;105;105;156;156;149;223;187;105;223;189;192;156;187;228;223;129
NtQueryInformationAtom;150;190;184;229;181;224;121;150;121;121;150;157;121;98;224;157;98;98;157;157;150;224;186;98;224;188;191;157;186;229;224;121
NtQueryInformationByName;-1;189;-1;-1;-1;-1;-1;-1;-1;-1;-1;-1;-1;-1;-1;-1;-1;-1;-1;-1;-1;-1;-1;-1;-1;-1;190;-1;-1;-1;-1;-1
NtQueryInformationEnlistment;-1;188;183;230;180;113;-1;-1;-1;-1;-1;-1;-1;-1;114;-1;-1;-1;-1;-1;-1;114;185;-1;114;187;189;-1;185;230;114;-1
NtQueryInformationFile;151;187;182;231;179;225;130;151;130;130;151;158;130;106;225;158;106;106;158;158;151;225;184;106;225;186;188;158;184;231;225;130
NtQueryInformationJobObject;152;186;181;232;178;226;131;152;131;131;152;159;131;-1;226;159;-1;-1;159;159;152;226;183;-1;226;185;187;159;183;232;226;131
NtQueryInformationPort;153;185;180;233;177;227;133;153;133;133;153;160;133;108;227;160;108;108;160;160;153;227;182;108;227;184;186;160;182;233;227;133
NtQueryInformationProcess;154;184;179;234;176;228;134;154;134;134;154;161;134;109;228;161;109;109;161;161;154;228;181;109;228;183;185;161;181;234;228;134
NtQueryInformationResourceManager;-1;183;178;235;175;109;-1;-1;-1;-1;-1;-1;-1;-1;110;-1;-1;-1;-1;-1;-1;110;180;-1;110;182;184;-1;180;235;110;-1
NtQueryInformationThread;155;182;177;236;174;229;135;155;135;135;155;162;135;110;229;162;110;110;162;162;155;229;179;110;229;181;183;162;179;236;229;135
NtQueryInformationToken;156;181;176;237;173;230;136;156;136;136;156;163;136;111;230;163;111;111;163;163;156;230;178;111;230;180;182;163;178;237;230;136
NtQueryInformationTransaction;-1;180;175;238;172;83;-1;-1;-1;-1;-1;-1;-1;-1;83;-1;-1;-1;-1;-1;-1;83;177;-1;83;179;181;-1;177;238;83;-1
NtQueryInformationTransactionManager;-1;179;174;239;171;84;-1;-1;-1;-1;-1;-1;-1;-1;84;-1;-1;-1;-1;-1;-1;84;176;-1;84;178;180;-1;176;239;84;-1
NtQueryInformationWorkerFactory;-1;178;173;240;170;385;-1;-1;-1;-1;-1;-1;-1;-1;379;-1;-1;-1;-1;-1;-1;379;175;-1;379;177;179;-1;175;240;379;-1
NtQueryInstallUILanguage;157;177;172;241;169;231;137;157;137;137;157;164;137;-1;231;164;-1;-1;164;164;157;231;174;-1;231;176;178;164;174;241;231;137
NtQueryIntervalProfile;158;176;171;242;168;232;138;158;138;138;158;165;138;112;232;165;112;112;165;165;158;232;173;112;232;175;177;165;173;242;232;138
NtQueryIoCompletion;159;175;170;243;167;233;132;159;132;132;159;166;132;107;233;166;107;107;166;166;159;233;172;107;233;174;176;166;172;243;233;132
NtQueryKey;160;174;169;244;166;234;139;160;139;139;160;167;139;113;234;167;113;113;167;167;160;234;171;113;234;173;175;167;171;244;234;139
NtQueryLicenseValue;-1;173;168;245;165;390;-1;-1;-1;-1;-1;-1;-1;-1;384;-1;-1;-1;-1;-1;-1;384;170;-1;384;172;174;-1;170;245;384;-1
NtQueryMultipleValueKey;161;172;167;246;164;235;140;161;140;140;161;168;140;114;235;168;114;114;168;168;161;235;169;114;235;171;173;168;169;246;235;140
NtQueryMutant;162;171;166;247;163;236;141;162;141;141;162;169;141;115;236;169;115;115;169;169;162;236;168;115;236;170;172;169;168;247;236;141
NtQueryObject;163;170;165;248;162;237;142;163;142;142;163;170;142;116;237;170;116;116;170;170;163;237;167;116;237;169;171;170;167;248;237;142
NtQueryOleDirectoryFile;-1;-1;-1;-1;-1;-1;-1;-1;-1;-1;-1;-1;-1;117;-1;-1;117;117;-1;-1;-1;-1;-1;117;-1;-1;-1;-1;-1;-1;-1;-1
NtQueryOpenSubKeys;164;169;164;249;161;238;143;164;143;143;164;171;143;-1;238;171;-1;-1;171;171;164;238;166;-1;238;168;170;171;166;249;238;143
NtQueryOpenSubKeysEx;-1;168;163;250;160;239;-1;-1;-1;-1;-1;172;-1;-1;239;172;-1;-1;172;172;-1;239;165;-1;239;167;169;172;165;250;239;-1
NtQueryPerformanceCounter;165;167;162;251;159;240;144;165;144;144;165;173;144;118;240;173;118;118;173;173;165;240;164;118;240;166;168;173;164;251;240;144
NtQueryPortInformationProcess;283;166;161;252;158;368;-1;283;-1;-1;283;293;-1;-1;364;293;-1;-1;293;293;283;364;163;-1;364;165;167;293;163;252;364;-1
NtQueryQuotaInformationFile;166;165;160;253;157;241;145;166;145;145;166;174;145;-1;241;174;-1;-1;174;174;166;241;162;-1;241;164;166;174;162;253;241;145
NtQuerySection;167;164;159;254;156;242;146;167;146;146;167;175;146;119;242;175;119;119;175;175;167;242;161;119;242;163;165;175;161;254;242;146
NtQuerySecurityAttributesToken;-1;163;158;255;155;-1;-1;-1;-1;-1;-1;-1;-1;-1;-1;-1;-1;-1;-1;-1;-1;-1;160;-1;-1;162;164;-1;160;255;-1;-1
NtQuerySecurityObject;168;162;157;256;154;243;147;168;147;147;168;176;147;120;243;176;120;120;176;176;168;243;159;120;243;161;163;176;159;256;243;147
NtQuerySecurityPolicy;-1;161;-1;-1;-1;-1;-1;-1;-1;-1;-1;-1;-1;-1;-1;-1;-1;-1;-1;-1;-1;-1;-1;-1;-1;160;162;-1;-1;-1;-1;-1
NtQuerySemaphore;169;160;156;257;153;244;148;169;148;148;169;177;148;121;244;177;121;121;177;177;169;244;158;121;244;159;161;177;158;257;244;148
NtQuerySymbolicLinkObject;170;159;155;258;152;245;149;170;149;149;170;178;149;122;245;178;122;122;178;178;170;245;157;122;245;158;160;178;157;258;245;149
NtQuerySystemEnvironmentValue;171;158;154;259;151;246;150;171;150;150;171;179;150;123;246;179;123;123;179;179;171;246;156;123;246;157;159;179;156;259;246;150
NtQuerySystemEnvironmentValueEx;172;157;153;260;150;247;-1;172;-1;-1;172;180;-1;-1;247;180;-1;-1;180;180;172;247;155;-1;247;156;158;180;155;260;247;-1
NtQuerySystemInformation;173;156;152;261;149;248;151;173;151;151;173;181;151;124;248;181;124;124;181;181;173;248;154;124;248;155;157;181;154;261;248;151
NtQuerySystemInformationEx;-1;155;151;262;148;-1;-1;-1;-1;-1;-1;-1;-1;-1;-1;-1;-1;-1;-1;-1;-1;-1;153;-1;-1;154;156;-1;153;262;-1;-1
NtQuerySystemTime;174;154;150;263;147;249;152;174;152;152;174;182;152;125;249;182;125;125;182;182;174;249;152;125;249;153;155;182;152;263;249;152
NtQueryTimer;175;153;149;264;146;250;153;175;153;153;175;183;153;126;250;183;126;126;183;183;175;250;151;126;250;152;154;183;151;264;250;153
NtQueryTimerResolution;176;152;148;265;145;251;154;176;154;154;176;184;154;127;251;184;127;127;184;184;176;251;150;127;251;151;153;184;150;265;251;154
NtQueryValueKey;177;151;147;266;144;252;155;177;155;155;177;185;155;128;252;185;128;128;185;185;177;252;149;128;252;150;152;185;149;266;252;155
NtQueryVirtualMemory;178;150;146;267;143;253;156;178;156;156;178;186;156;129;253;186;129;129;186;186;178;253;148;129;253;149;151;186;148;267;253;156
NtQueryVolumeInformationFile;179;149;145;268;142;254;157;179;157;157;179;187;157;130;254;187;130;130;187;187;179;254;147;130;254;148;150;187;147;268;254;157
NtQueryWinStationInformation;-1;-1;-1;-1;-1;-1;-1;-1;-1;-1;-1;-1;-1;213;-1;-1;-1;-1;-1;-1;-1;-1;-1;-1;-1;-1;-1;-1;-1;-1;-1;-1
NtQueryWnfStateData;-1;147;143;-1;140;-1;-1;-1;-1;-1;-1;-1;-1;-1;-1;-1;-1;-1;-1;-1;-1;-1;145;-1;-1;146;148;-1;145;-1;-1;-1
NtQueryWnfStateNameInformation;-1;148;144;-1;141;-1;-1;-1;-1;-1;-1;-1;-1;-1;-1;-1;-1;-1;-1;-1;-1;-1;146;-1;-1;147;149;-1;146;-1;-1;-1
NtQueueApcThread;180;145;142;269;139;255;158;180;158;158;180;188;158;131;255;188;131;131;188;188;180;255;144;131;255;145;146;188;144;269;255;158
NtQueueApcThreadEx;-1;144;141;270;138;-1;-1;-1;-1;-1;-1;-1;-1;-1;-1;-1;-1;-1;-1;-1;-1;-1;143;-1;-1;144;145;-1;143;270;-1;-1
NtRaiseException;181;143;140;271;137;256;159;181;159;159;181;189;159;132;256;189;132;132;189;189;181;256;142;132;256;143;144;189;142;271;256;159
NtRaiseHardError;182;142;139;272;136;257;160;182;160;160;182;190;160;133;257;190;133;133;190;190;182;257;141;133;257;142;143;190;141;272;257;160
NtReadFile;183;141;138;273;135;258;161;183;161;161;183;191;161;134;258;191;134;134;191;191;183;258;140;134;258;141;142;191;140;273;258;161
NtReadFileScatter;184;140;137;274;134;259;162;184;162;162;184;192;162;135;259;192;135;135;192;192;184;259;139;135;259;140;141;192;139;274;259;162
NtReadOnlyEnlistment;-1;139;136;275;133;88;-1;-1;-1;-1;-1;-1;-1;-1;88;-1;-1;-1;-1;-1;-1;88;138;-1;88;139;140;-1;138;275;88;-1
NtReadRequestData;185;138;135;276;132;260;163;185;163;163;185;193;163;136;260;193;136;136;193;193;185;260;137;136;260;138;139;193;137;276;260;163
NtReadVirtualMemory;186;137;134;277;131;261;164;186;164;164;186;194;164;137;261;194;137;137;194;194;186;261;136;137;261;137;138;194;136;277;261;164
NtRecoverEnlistment;-1;136;133;278;130;103;-1;-1;-1;-1;-1;-1;-1;-1;104;-1;-1;-1;-1;-1;-1;104;135;-1;104;136;137;-1;135;278;104;-1
NtRecoverResourceManager;-1;135;132;279;129;104;-1;-1;-1;-1;-1;-1;-1;-1;105;-1;-1;-1;-1;-1;-1;105;134;-1;105;135;136;-1;134;279;105;-1
NtRecoverTransactionManager;-1;134;131;280;128;105;-1;-1;-1;-1;-1;-1;-1;-1;106;-1;-1;-1;-1;-1;-1;106;133;-1;106;134;135;-1;133;280;106;-1
NtRegisterProtocolAddressInformation;-1;133;130;281;127;376;-1;-1;-1;-1;-1;-1;-1;-1;372;-1;-1;-1;-1;-1;-1;372;132;-1;372;133;134;-1;132;281;372;-1
NtRegisterThreadTerminatePort;187;132;129;282;126;262;165;187;165;165;187;195;165;138;262;195;138;138;195;195;187;262;131;138;262;132;133;195;131;282;262;165
NtReleaseCMFViewOwnership;-1;-1;-1;-1;-1;397;-1;-1;-1;-1;-1;-1;-1;-1;390;-1;-1;-1;-1;-1;-1;390;-1;-1;390;-1;-1;-1;-1;-1;390;-1
NtReleaseKeyedEvent;281;131;128;283;125;366;-1;281;-1;-1;281;291;-1;-1;362;291;-1;-1;291;291;281;362;130;-1;362;131;132;291;130;283;362;-1
NtReleaseMutant;188;130;127;284;124;263;166;188;166;166;188;196;166;139;263;196;139;139;196;196;188;263;129;139;263;130;131;196;129;284;263;166
NtReleaseSemaphore;189;129;126;285;123;264;167;189;167;167;189;197;167;140;264;197;140;140;197;197;189;264;128;140;264;129;130;197;128;285;264;167
NtReleaseWorkerFactoryWorker;-1;128;125;286;122;382;-1;-1;-1;-1;-1;-1;-1;-1;376;-1;-1;-1;-1;-1;-1;376;127;-1;376;128;129;-1;127;286;376;-1
NtRemoveIoCompletion;190;127;124;287;121;265;168;190;168;168;190;198;168;141;265;198;141;141;198;198;190;265;126;141;265;127;128;198;126;287;265;168
NtRemoveIoCompletionEx;-1;126;123;288;120;375;-1;-1;-1;-1;-1;-1;-1;-1;371;-1;-1;-1;-1;-1;-1;371;125;-1;371;126;127;-1;125;288;371;-1
NtRemoveProcessDebug;191;125;122;289;119;266;-1;191;-1;-1;191;199;-1;-1;266;199;-1;-1;199;199;191;266;124;-1;266;125;126;199;124;289;266;-1
NtRenameKey;192;124;121;290;118;267;-1;192;-1;-1;192;200;-1;-1;267;200;-1;-1;200;200;192;267;123;-1;267;124;125;200;123;290;267;-1
NtRenameTransactionManager;-1;123;120;291;117;-1;-1;-1;-1;-1;-1;-1;-1;-1;102;-1;-1;-1;-1;-1;-1;102;122;-1;102;123;124;-1;122;291;102;-1
NtReplaceKey;193;122;119;292;116;268;169;193;169;169;193;201;169;142;268;201;142;142;201;201;193;268;121;142;268;122;123;201;121;292;268;169
NtReplacePartitionUnit;-1;121;118;293;115;-1;-1;-1;-1;-1;-1;-1;-1;-1;269;-1;-1;-1;-1;-1;-1;269;120;-1;269;121;122;-1;120;293;269;-1
NtReplyPort;194;120;117;294;114;269;170;194;170;170;194;202;170;143;270;202;143;143;202;202;194;270;119;143;270;120;121;202;119;294;270;170
NtReplyWaitReceivePort;195;119;116;295;113;270;171;195;171;171;195;203;171;144;271;203;144;144;203;203;195;271;118;144;271;119;120;203;118;295;271;171
NtReplyWaitReceivePortEx;196;118;115;296;112;271;172;196;172;172;196;204;172;-1;272;204;-1;-1;204;204;196;272;117;-1;272;118;119;204;117;296;272;172
NtReplyWaitReplyPort;197;117;114;297;111;272;173;197;173;173;197;205;173;145;273;205;145;145;205;205;197;273;116;145;273;117;118;205;116;297;273;173
NtReplyWaitSendChannel;-1;-1;-1;-1;-1;-1;244;-1;244;244;-1;-1;244;207;-1;-1;207;208;-1;-1;-1;-1;-1;207;-1;-1;-1;-1;-1;-1;-1;244
NtRequestDeviceWakeup;198;-1;-1;-1;-1;273;174;198;174;174;198;206;174;-1;274;206;-1;-1;206;206;198;274;-1;-1;274;-1;-1;206;-1;-1;274;174
NtRequestPort;199;116;113;298;110;274;175;199;175;175;199;207;175;146;275;207;146;146;207;207;199;275;115;146;275;116;117;207;115;298;275;175
NtRequestWaitReplyPort;200;115;112;299;109;275;176;200;176;176;200;208;176;147;276;208;147;147;208;208;200;276;114;147;276;115;116;208;114;299;276;176
NtRequestWakeupLatency;201;-1;-1;-1;-1;276;177;201;177;177;201;209;177;-1;277;209;-1;-1;209;209;201;277;-1;-1;277;-1;-1;209;-1;-1;277;177
NtResetEvent;202;114;111;300;108;277;178;202;178;178;202;210;178;148;278;210;148;148;210;210;202;278;113;148;278;114;115;210;113;300;278;178
NtResetWriteWatch;203;113;110;301;107;278;179;203;179;179;203;211;179;-1;279;211;-1;-1;211;211;203;279;112;-1;279;113;114;211;112;301;279;179
NtRestoreKey;204;112;109;302;106;279;180;204;180;180;204;212;180;149;280;212;149;149;212;212;204;280;111;149;280;112;113;212;111;302;280;180
NtResumeProcess;205;111;108;303;105;280;-1;205;-1;-1;205;213;-1;-1;281;213;-1;-1;213;213;205;281;110;-1;281;111;112;213;110;303;281;-1
NtResumeThread;206;110;107;304;104;281;181;206;181;181;206;214;181;150;282;214;150;150;214;214;206;282;109;150;282;110;111;214;109;304;282;181
NtRevertContainerImpersonation;-1;109;-1;-1;-1;-1;-1;-1;-1;-1;-1;-1;-1;-1;-1;-1;-1;-1;-1;-1;-1;-1;108;-1;-1;109;110;-1;108;-1;-1;-1
NtRollbackComplete;-1;108;106;305;103;89;-1;-1;-1;-1;-1;-1;-1;-1;89;-1;-1;-1;-1;-1;-1;89;107;-1;89;108;109;-1;107;305;89;-1
NtRollbackEnlistment;-1;107;105;306;102;90;-1;-1;-1;-1;-1;-1;-1;-1;90;-1;-1;-1;-1;-1;-1;90;106;-1;90;107;108;-1;106;306;90;-1
NtRollbackRegistryTransaction;-1;455;-1;-1;-1;-1;-1;-1;-1;-1;-1;-1;-1;-1;-1;-1;-1;-1;-1;-1;-1;-1;-1;-1;-1;449;459;-1;-1;-1;-1;-1
NtRollbackSavepointTransaction;-1;-1;-1;-1;-1;287;-1;-1;-1;-1;-1;-1;-1;-1;-1;-1;-1;-1;-1;-1;-1;-1;-1;-1;-1;-1;-1;-1;-1;-1;-1;-1
NtRollbackTransaction;-1;106;104;307;101;92;-1;-1;-1;-1;-1;-1;-1;-1;92;-1;-1;-1;-1;-1;-1;92;105;-1;92;106;107;-1;105;307;92;-1
NtRollforwardTransactionManager;-1;105;103;308;100;102;-1;-1;-1;-1;-1;-1;-1;-1;103;-1;-1;-1;-1;-1;-1;103;104;-1;103;105;106;-1;104;308;103;-1
NtSaveKey;207;104;102;309;99;282;182;207;182;182;207;215;182;151;283;215;151;151;215;215;207;283;103;151;283;104;105;215;103;309;283;182
NtSaveKeyEx;208;103;101;310;98;283;-1;208;-1;-1;208;216;-1;-1;284;216;-1;-1;216;216;208;284;102;-1;284;103;104;216;102;310;284;-1
NtSaveMergedKeys;209;102;100;311;97;284;183;209;183;183;209;217;183;-1;285;217;-1;-1;217;217;209;285;101;-1;285;102;103;217;101;311;285;183
NtSavepointComplete;-1;-1;-1;-1;-1;289;-1;-1;-1;-1;-1;-1;-1;-1;-1;-1;-1;-1;-1;-1;-1;-1;-1;-1;-1;-1;-1;-1;-1;-1;-1;-1
NtSavepointTransaction;-1;-1;-1;-1;-1;288;-1;-1;-1;-1;-1;-1;-1;-1;-1;-1;-1;-1;-1;-1;-1;-1;-1;-1;-1;-1;-1;-1;-1;-1;-1;-1
NtSecureConnectPort;210;101;99;312;96;290;184;210;184;184;210;218;184;-1;286;218;-1;-1;218;218;210;286;100;-1;286;101;102;218;100;312;286;184
NtSendWaitReplyChannel;-1;-1;-1;-1;-1;-1;245;-1;245;245;-1;-1;245;208;-1;-1;208;209;-1;-1;-1;-1;-1;208;-1;-1;-1;-1;-1;-1;-1;245
NtSerializeBoot;-1;100;98;313;95;-1;-1;-1;-1;-1;-1;-1;-1;-1;-1;-1;-1;-1;-1;-1;-1;-1;99;-1;-1;100;101;-1;99;313;-1;-1
NtSetBootEntryOrder;211;99;97;314;94;291;-1;211;-1;-1;211;219;-1;-1;287;219;-1;-1;219;219;211;287;98;-1;287;99;100;219;98;314;287;-1
NtSetBootOptions;212;98;96;315;93;292;-1;212;-1;-1;212;220;-1;-1;288;220;-1;-1;220;220;212;288;97;-1;288;98;99;220;97;315;288;-1
NtSetCachedSigningLevel;-1;97;95;-1;92;-1;-1;-1;-1;-1;-1;-1;-1;-1;-1;-1;-1;-1;-1;-1;-1;-1;96;-1;-1;97;98;-1;96;-1;-1;-1
NtSetCachedSigningLevel2;-1;96;-1;-1;-1;-1;-1;-1;-1;-1;-1;-1;-1;-1;-1;-1;-1;-1;-1;-1;-1;-1;-1;-1;-1;96;97;-1;-1;-1;-1;-1
NtSetContextChannel;-1;-1;-1;-1;-1;-1;246;-1;246;246;-1;-1;246;209;-1;-1;209;210;-1;-1;-1;-1;-1;209;-1;-1;-1;-1;-1;-1;-1;246
NtSetContextThread;213;95;94;316;91;293;186;213;186;186;213;221;186;153;289;221;153;153;221;221;213;289;95;153;289;95;96;221;95;316;289;186
NtSetDebugFilterState;214;94;93;317;90;294;-1;214;-1;-1;214;222;-1;-1;290;222;-1;-1;222;222;214;290;94;-1;290;94;95;222;94;317;290;-1
NtSetDefaultHardErrorPort;215;93;92;318;89;295;187;215;187;187;215;223;187;154;291;223;154;154;223;223;215;291;93;154;291;93;94;223;93;318;291;187
NtSetDefaultLocale;216;92;91;319;88;296;188;216;188;188;216;224;188;155;292;224;155;155;224;224;216;292;92;155;292;92;93;224;92;319;292;188
NtSetDefaultUILanguage;217;91;90;320;87;297;189;217;189;189;217;225;189;-1;293;225;-1;-1;225;225;217;293;91;-1;293;91;92;225;91;320;293;189
NtSetDriverEntryOrder;-1;90;89;321;86;298;-1;-1;-1;-1;-1;226;-1;-1;294;226;-1;-1;226;226;-1;294;90;-1;294;90;91;226;90;321;294;-1
NtSetEaFile;218;89;88;322;85;299;190;218;190;190;218;227;190;156;295;227;156;156;227;227;218;295;89;156;295;89;90;227;89;322;295;190
NtSetEvent;219;88;87;323;84;300;191;219;191;191;219;228;191;157;296;228;157;157;228;228;219;296;88;157;296;88;89;228;88;323;296;191
NtSetEventBoostPriority;220;87;86;324;83;301;-1;220;-1;-1;220;229;-1;-1;297;229;-1;-1;229;229;220;297;87;-1;297;87;88;229;87;324;297;-1
NtSetHighEventPair;221;86;85;325;82;302;192;221;192;192;221;230;192;158;298;230;158;158;230;230;221;298;86;158;298;86;87;230;86;325;298;192
NtSetHighWaitLowEventPair;222;85;84;326;81;303;193;222;193;193;222;231;193;159;299;231;159;159;231;231;222;299;85;159;299;85;86;231;85;326;299;193
NtSetHighWaitLowThread;-1;-1;-1;-1;-1;-1;-1;-1;-1;-1;-1;-1;-1;160;-1;-1;160;160;-1;-1;-1;-1;-1;160;-1;-1;-1;-1;-1;-1;-1;-1
NtSetIRTimer;-1;66;65;-1;64;-1;-1;-1;-1;-1;-1;-1;-1;-1;-1;-1;-1;-1;-1;-1;-1;-1;66;-1;-1;66;67;-1;66;-1;-1;-1
NtSetInformationDebugObject;223;84;83;327;80;304;-1;223;-1;-1;223;232;-1;-1;300;232;-1;-1;232;232;223;300;84;-1;300;84;85;232;84;327;300;-1
NtSetInformationEnlistment;-1;83;82;328;79;112;-1;-1;-1;-1;-1;-1;-1;-1;113;-1;-1;-1;-1;-1;-1;113;83;-1;113;83;84;-1;83;328;113;-1
NtSetInformationFile;224;82;81;329;78;305;194;224;194;194;224;233;194;161;301;233;161;161;233;233;224;301;82;161;301;82;83;233;82;329;301;194
NtSetInformationJobObject;225;81;80;330;77;306;195;225;195;195;225;234;195;-1;302;234;-1;-1;234;234;225;302;81;-1;302;81;82;234;81;330;302;195
NtSetInformationKey;226;80;79;331;76;307;196;226;196;196;226;235;196;162;303;235;162;162;235;235;226;303;80;162;303;80;81;235;80;331;303;196
NtSetInformationObject;227;79;78;332;75;308;197;227;197;197;227;236;197;163;304;236;163;163;236;236;227;304;79;163;304;79;80;236;79;332;304;197
NtSetInformationProcess;228;78;77;333;74;309;198;228;198;198;228;237;198;164;305;237;164;164;237;237;228;305;78;164;305;78;79;237;78;333;305;198
NtSetInformationResourceManager;-1;77;76;334;73;99;-1;-1;-1;-1;-1;-1;-1;-1;99;-1;-1;-1;-1;-1;-1;99;77;-1;99;77;78;-1;77;334;99;-1
NtSetInformationSymbolicLink;-1;451;-1;-1;-1;-1;-1;-1;-1;-1;-1;-1;-1;-1;-1;-1;-1;-1;-1;-1;-1;-1;443;-1;-1;445;455;-1;440;-1;-1;-1
NtSetInformationThread;229;76;75;335;72;310;199;229;199;199;229;238;199;165;306;238;165;165;238;238;229;306;76;165;306;76;77;238;76;335;306;199
NtSetInformationToken;230;75;74;336;71;311;200;230;200;200;230;239;200;166;307;239;166;166;239;239;230;307;75;166;307;75;76;239;75;336;307;200
NtSetInformationTransaction;-1;74;73;337;70;97;-1;-1;-1;-1;-1;-1;-1;-1;97;-1;-1;-1;-1;-1;-1;97;74;-1;97;74;75;-1;74;337;97;-1
NtSetInformationTransactionManager;-1;73;72;338;69;98;-1;-1;-1;-1;-1;-1;-1;-1;98;-1;-1;-1;-1;-1;-1;98;73;-1;98;73;74;-1;73;338;98;-1
NtSetInformationVirtualMemory;-1;210;204;-1;201;-1;-1;-1;-1;-1;-1;-1;-1;-1;-1;-1;-1;-1;-1;-1;-1;-1;206;-1;-1;208;212;-1;206;-1;-1;-1
NtSetInformationWorkerFactory;-1;72;71;339;68;384;-1;-1;-1;-1;-1;-1;-1;-1;378;-1;-1;-1;-1;-1;-1;378;72;-1;378;72;73;-1;72;339;378;-1
NtSetIntervalProfile;231;71;70;340;67;312;201;231;201;201;231;240;201;167;308;240;167;167;240;240;231;308;71;167;308;71;72;240;71;340;308;201
NtSetIoCompletion;232;70;69;341;66;313;185;232;185;185;232;241;185;152;309;241;152;152;241;241;232;309;70;152;309;70;71;241;70;341;309;185
NtSetIoCompletionEx;-1;69;68;342;65;-1;-1;-1;-1;-1;-1;-1;-1;-1;-1;-1;-1;-1;-1;-1;-1;-1;69;-1;-1;69;70;-1;69;342;-1;-1
NtSetLdtEntries;233;65;64;343;63;314;202;233;202;202;233;242;202;168;310;242;168;168;242;242;233;310;65;168;310;65;66;242;65;343;310;202
NtSetLowEventPair;234;64;63;344;62;315;203;234;203;203;234;243;203;169;311;243;169;169;243;243;234;311;64;169;311;64;65;243;64;344;311;203
NtSetLowWaitHighEventPair;235;63;62;345;61;316;204;235;204;204;235;244;204;170;312;244;170;170;244;244;235;312;63;170;312;63;64;244;63;345;312;204
NtSetLowWaitHighThread;-1;-1;-1;-1;-1;-1;-1;-1;-1;-1;-1;-1;-1;171;-1;-1;171;171;-1;-1;-1;-1;-1;171;-1;-1;-1;-1;-1;-1;-1;-1
NtSetQuotaInformationFile;236;62;61;346;60;317;205;236;205;205;236;245;205;-1;313;245;-1;-1;245;245;236;313;62;-1;313;62;63;245;62;346;313;205
NtSetSecurityObject;237;61;60;347;59;318;206;237;206;206;237;246;206;172;314;246;172;172;246;246;237;314;61;172;314;61;62;246;61;347;314;206
NtSetSystemEnvironmentValue;238;60;59;348;58;319;207;238;207;207;238;247;207;173;315;247;173;173;247;247;238;315;60;173;315;60;61;247;60;348;315;207
NtSetSystemEnvironmentValueEx;239;59;58;349;57;320;-1;239;-1;-1;239;248;-1;-1;316;248;-1;-1;248;248;239;316;59;-1;316;59;60;248;59;349;316;-1
NtSetSystemInformation;240;58;57;350;56;321;208;240;208;208;240;249;208;174;317;249;174;174;249;249;240;317;58;174;317;58;59;249;58;350;317;208
NtSetSystemPowerState;241;57;56;351;55;322;209;241;209;209;241;250;209;175;318;250;175;175;250;250;241;318;57;175;318;57;58;250;57;351;318;209
NtSetSystemTime;242;56;55;352;54;323;210;242;210;210;242;251;210;176;319;251;176;176;251;251;242;319;56;176;319;56;57;251;56;352;319;210
NtSetThreadExecutionState;243;55;54;353;53;324;211;243;211;211;243;252;211;-1;320;252;-1;-1;252;252;243;320;55;-1;320;55;56;252;55;353;320;211
NtSetTimer;244;54;53;354;52;325;212;244;212;212;244;253;212;177;321;253;177;177;253;253;244;321;54;177;321;54;55;253;54;354;321;212
NtSetTimer2;-1;67;66;-1;-1;-1;-1;-1;-1;-1;-1;-1;-1;-1;-1;-1;-1;-1;-1;-1;-1;-1;67;-1;-1;67;68;-1;67;-1;-1;-1
NtSetTimerEx;-1;53;52;355;51;-1;-1;-1;-1;-1;-1;-1;-1;-1;-1;-1;-1;-1;-1;-1;-1;-1;53;-1;-1;53;54;-1;53;355;-1;-1
NtSetTimerResolution;245;52;51;356;50;326;213;245;213;213;245;254;213;178;322;254;178;178;254;254;245;322;52;178;322;52;53;254;52;356;322;213
NtSetUuidSeed;246;51;50;357;49;327;214;246;214;214;246;255;214;-1;323;255;-1;-1;255;255;246;323;51;-1;323;51;52;255;51;357;323;214
NtSetValueKey;247;50;49;358;48;328;215;247;215;215;247;256;215;179;324;256;179;179;256;256;247;324;50;179;324;50;51;256;50;358;324;215
NtSetVolumeInformationFile;248;49;48;359;47;329;216;248;216;216;248;257;216;180;325;257;180;180;257;257;248;325;49;180;325;49;50;257;49;359;325;216
NtSetWinStationInformation;-1;-1;-1;-1;-1;-1;-1;-1;-1;-1;-1;-1;-1;214;-1;-1;-1;-1;-1;-1;-1;-1;-1;-1;-1;-1;-1;-1;-1;-1;-1;-1
NtSetWnfProcessNotificationEvent;-1;48;47;-1;-1;-1;-1;-1;-1;-1;-1;-1;-1;-1;-1;-1;-1;-1;-1;-1;-1;-1;48;-1;-1;48;49;-1;48;-1;-1;-1
NtShutdownSystem;249;47;46;360;46;330;217;249;217;217;249;258;217;181;326;258;181;181;258;258;249;326;47;181;326;47;48;258;47;360;326;217
NtShutdownWorkerFactory;-1;46;45;361;45;387;-1;-1;-1;-1;-1;-1;-1;-1;381;-1;-1;-1;-1;-1;-1;381;46;-1;381;46;47;-1;46;361;381;-1
NtSignalAndWaitForSingleObject;250;45;44;362;44;331;218;250;218;218;250;259;218;182;327;259;182;182;259;259;250;327;45;182;327;45;46;259;45;362;327;218
NtSinglePhaseReject;-1;44;43;363;43;96;-1;-1;-1;-1;-1;-1;-1;-1;96;-1;-1;-1;-1;-1;-1;96;44;-1;96;44;45;-1;44;363;96;-1
NtStartProfile;251;43;42;364;42;332;219;251;219;219;251;260;219;183;328;260;183;183;260;260;251;328;43;183;328;43;44;260;43;364;328;219
NtStartTm;-1;-1;-1;-1;-1;114;-1;-1;-1;-1;-1;-1;-1;-1;-1;-1;-1;-1;-1;-1;-1;-1;-1;-1;-1;-1;-1;-1;-1;-1;-1;-1
NtStopProfile;252;42;41;365;41;333;220;252;220;220;252;261;220;184;329;261;184;184;261;261;252;329;42;184;329;42;43;261;42;365;329;220
NtSubscribeWnfStateChange;-1;41;40;-1;40;-1;-1;-1;-1;-1;-1;-1;-1;-1;-1;-1;-1;-1;-1;-1;-1;-1;41;-1;-1;41;42;-1;41;-1;-1;-1
NtSuspendProcess;253;40;39;366;39;334;-1;253;-1;-1;253;262;-1;-1;330;262;-1;-1;262;262;253;330;40;-1;330;40;41;262;40;366;330;-1
NtSuspendThread;254;39;38;367;38;335;221;254;221;221;254;263;221;185;331;263;185;185;263;263;254;331;39;185;331;39;40;263;39;367;331;221
NtSystemDebugControl;255;38;37;368;37;336;222;255;222;222;255;264;222;186;332;264;186;186;264;264;255;332;38;186;332;38;39;264;38;368;332;222
NtTerminateEnclave;-1;-1;-1;-1;-1;-1;-1;-1;-1;-1;-1;-1;-1;-1;-1;-1;-1;-1;-1;-1;-1;-1;-1;-1;-1;-1;38;-1;-1;-1;-1;-1
NtTerminateJobObject;256;37;36;369;36;337;223;256;223;223;256;265;223;-1;333;265;-1;-1;265;265;256;333;37;-1;333;37;37;265;37;369;333;223
NtTerminateProcess;257;36;35;370;35;338;224;257;224;224;257;266;224;187;334;266;187;187;266;266;257;334;36;187;334;36;36;266;36;370;334;224
NtTerminateThread;258;35;34;371;34;339;225;258;225;225;258;267;225;188;335;267;188;188;267;267;258;335;35;188;335;35;35;267;35;371;335;225
NtTestAlert;259;34;33;372;33;340;226;259;226;226;259;268;226;189;336;268;189;189;268;268;259;336;34;189;336;34;34;268;34;372;336;226
NtThawRegistry;-1;33;32;373;32;341;-1;-1;-1;-1;-1;-1;-1;-1;337;-1;-1;-1;-1;-1;-1;337;33;-1;337;33;33;-1;33;373;337;-1
NtThawTransactions;-1;32;31;374;31;342;-1;-1;-1;-1;-1;-1;-1;-1;338;-1;-1;-1;-1;-1;-1;338;32;-1;338;32;32;-1;32;374;338;-1
NtTraceControl;-1;31;30;375;30;344;-1;-1;-1;-1;-1;-1;-1;-1;340;-1;-1;-1;-1;-1;-1;340;31;-1;340;31;31;-1;31;375;340;-1
NtTraceEvent;260;30;29;376;29;343;-1;260;-1;-1;260;269;-1;-1;339;269;-1;-1;269;269;260;339;30;-1;339;30;30;269;30;376;339;-1
NtTranslateFilePath;261;29;28;377;28;345;-1;261;-1;-1;261;270;-1;-1;341;270;-1;-1;270;270;261;341;29;-1;341;29;29;270;29;377;341;-1
NtUmsThreadYield;-1;28;27;378;27;-1;-1;-1;-1;-1;-1;-1;-1;-1;-1;-1;-1;-1;-1;-1;-1;-1;28;-1;-1;28;28;-1;28;378;-1;-1
NtUnloadDriver;262;27;26;379;26;346;227;262;227;227;262;271;227;190;342;271;190;190;271;271;262;342;27;190;342;27;27;271;27;379;342;227
NtUnloadKey;263;26;25;380;25;347;228;263;228;228;263;272;228;191;343;272;191;191;272;272;263;343;26;191;343;26;26;272;26;380;343;228
NtUnloadKey2;-1;25;24;381;24;348;-1;-1;-1;-1;-1;273;-1;-1;344;273;-1;-1;273;273;-1;344;25;-1;344;25;25;273;25;381;344;-1
NtUnloadKeyEx;264;24;23;382;23;349;-1;264;-1;-1;264;274;-1;-1;345;274;-1;-1;274;274;264;345;24;-1;345;24;24;274;24;382;345;-1
NtUnlockFile;265;23;22;383;22;350;229;265;229;229;265;275;229;192;346;275;192;192;275;275;265;346;23;192;346;23;23;275;23;383;346;229
NtUnlockVirtualMemory;266;22;21;384;21;351;230;266;230;230;266;276;230;193;347;276;193;193;276;276;266;347;22;193;347;22;22;276;22;384;347;230
NtUnmapViewOfSection;267;20;19;385;19;352;231;267;231;231;267;277;231;194;348;277;194;194;277;277;267;348;20;194;348;20;20;277;20;385;348;231
NtUnmapViewOfSectionEx;-1;21;20;-1;20;-1;-1;-1;-1;-1;-1;-1;-1;-1;-1;-1;-1;-1;-1;-1;-1;-1;21;-1;-1;21;21;-1;21;-1;-1;-1
NtUnsubscribeWnfStateChange;-1;18;17;-1;17;-1;-1;-1;-1;-1;-1;-1;-1;-1;-1;-1;-1;-1;-1;-1;-1;-1;18;-1;-1;18;18;-1;18;-1;-1;-1
NtUpdateWnfStateData;-1;19;18;-1;18;-1;-1;-1;-1;-1;-1;-1;-1;-1;-1;-1;-1;-1;-1;-1;-1;-1;19;-1;-1;19;19;-1;19;-1;-1;-1
NtVdmControl;268;17;16;386;16;353;232;268;232;232;268;278;232;195;349;278;195;195;278;278;268;349;17;195;349;17;17;278;17;386;349;232
NtW32Call;-1;-1;-1;-1;-1;-1;-1;-1;-1;-1;-1;-1;-1;-1;-1;-1;-1;204;-1;-1;-1;-1;-1;-1;-1;-1;-1;-1;-1;-1;-1;-1
NtWaitForAlertByThreadId;-1;16;15;-1;15;-1;-1;-1;-1;-1;-1;-1;-1;-1;-1;-1;-1;-1;-1;-1;-1;-1;16;-1;-1;16;16;-1;16;-1;-1;-1
NtWaitForDebugEvent;269;15;14;387;14;354;-1;269;-1;-1;269;279;-1;-1;350;279;-1;-1;279;279;269;350;15;-1;350;15;15;279;15;387;350;-1
NtWaitForKeyedEvent;282;14;13;388;13;367;-1;282;-1;-1;282;292;-1;-1;363;292;-1;-1;292;292;282;363;14;-1;363;14;14;292;14;388;363;-1
NtWaitForMultipleObjects;270;13;12;389;12;355;233;270;233;233;270;280;233;196;351;280;196;196;280;280;270;351;13;196;351;13;13;280;13;389;351;233
NtWaitForMultipleObjects32;-1;12;11;390;11;370;-1;-1;-1;-1;-1;295;-1;-1;366;295;-1;-1;295;295;-1;366;12;-1;366;12;12;-1;12;390;366;-1
NtWaitForSingleObject;271;11;10;391;10;356;234;271;234;234;271;281;234;197;352;281;197;197;281;281;271;352;11;197;352;11;11;281;11;391;352;234
NtWaitForWnfNotifications;-1;-1;-1;-1;9;-1;-1;-1;-1;-1;-1;-1;-1;-1;-1;-1;-1;-1;-1;-1;-1;-1;-1;-1;-1;-1;-1;-1;-1;-1;-1;-1
NtWaitForWorkViaWorkerFactory;-1;10;9;392;8;383;-1;-1;-1;-1;-1;-1;-1;-1;377;-1;-1;-1;-1;-1;-1;377;10;-1;377;10;10;-1;10;392;377;-1
NtWaitHighEventPair;272;9;8;393;7;357;235;272;235;235;272;282;235;198;353;282;198;198;282;282;272;353;9;198;353;9;9;282;9;393;353;235
NtWaitLowEventPair;273;8;7;394;6;358;236;273;236;236;273;283;236;199;354;283;199;199;283;283;273;354;8;199;354;8;8;283;8;394;354;236
NtWorkerFactoryWorkerReady;-1;1;0;395;0;386;-1;-1;-1;-1;-1;-1;-1;-1;380;-1;-1;-1;-1;-1;-1;380;1;-1;380;1;1;-1;1;395;380;-1
NtWriteErrorLogEntry;-1;-1;-1;-1;-1;-1;-1;-1;-1;-1;-1;-1;-1;215;-1;-1;-1;-1;-1;-1;-1;-1;-1;-1;-1;-1;-1;-1;-1;-1;-1;-1
NtWriteFile;274;7;6;396;5;359;237;274;237;237;274;284;237;200;355;284;200;200;284;284;274;355;7;200;355;7;7;284;7;396;355;237
NtWriteFileGather;275;6;5;397;4;360;238;275;238;238;275;285;238;201;356;285;201;201;285;285;275;356;6;201;356;6;6;285;6;397;356;238
NtWriteRequestData;276;5;4;398;3;361;239;276;239;239;276;286;239;202;357;286;202;202;286;286;276;357;5;202;357;5;5;286;5;398;357;239
NtWriteVirtualMemory;277;4;3;399;2;362;240;277;240;240;277;287;240;203;358;287;203;203;287;287;277;358;4;203;358;4;4;287;4;399;358;240
NtYieldExecution;278;3;2;400;1;363;247;278;247;247;278;288;247;210;359;288;210;211;288;288;278;359;3;210;359;3;3;288;3;400;359;247
